.history_payload/Master_Archive/Engineering_History/07_Simulations/sim012/tb_ha_tff_system_top_v004.vcd
$date
	Fri Jun 26 18:02:11 2026
$end
$version
	Icarus Verilog
$end
$timescale
	1ps
$end
$scope module tb_ha_tff_system_top_v004 $end
$var wire 1 ! s_axis_tready $end
$var wire 1 " m_axis_tvalid $end
$var wire 1 # m_axis_tlast $end
$var wire 8 $ m_axis_tkeep [7:0] $end
$var wire 64 % m_axis_tdata [63:0] $end
$var reg 1 & clk $end
$var reg 1 ' m_axis_tready $end
$var reg 1 ( rst $end
$var reg 64 ) s_axis_tdata [63:0] $end
$var reg 8 * s_axis_tkeep [7:0] $end
$var reg 1 + s_axis_tlast $end
$var reg 1 , s_axis_tvalid $end
$scope module uut $end
$var wire 1 & clk $end
$var wire 64 - delayed_tdata [63:0] $end
$var wire 8 . delayed_tkeep [7:0] $end
$var wire 1 / delayed_tlast $end
$var wire 1 0 delayed_tvalid $end
$var wire 64 1 m_axis_tdata [63:0] $end
$var wire 8 2 m_axis_tkeep [7:0] $end
$var wire 1 # m_axis_tlast $end
$var wire 1 ' m_axis_tready $end
$var wire 1 " m_axis_tvalid $end
$var wire 1 ( rst $end
$var wire 64 3 s_axis_tdata [63:0] $end
$var wire 8 4 s_axis_tkeep [7:0] $end
$var wire 1 + s_axis_tlast $end
$var wire 1 ! s_axis_tready $end
$var wire 1 , s_axis_tvalid $end
$var wire 1 5 tuple_valid $end
$var wire 16 6 src_port [15:0] $end
$var wire 32 7 src_ip [31:0] $end
$var wire 1 8 snn_spikes_valid $end
$var wire 8 9 snn_spikes_in [7:0] $end
$var wire 1 : snn_out_valid $end
$var wire 2 ; snn_out_spikes [1:0] $end
$var wire 8 < protocol [7:0] $end
$var wire 1 = parse_error $end
$var wire 16 > dst_port [15:0] $end
$var wire 32 ? dst_ip [31:0] $end
$var wire 1 @ dp_match_valid $end
$var wire 1 A dp_match_found $end
$var wire 1 B dp_action_forward $end
$var reg 1 C anomaly_detected $end
$var reg 1 D dp_action_forward_d1 $end
$var reg 1 E dp_match_valid_d1 $end
$var reg 1 F final_forward_reg $end
$scope module data_delay_inst $end
$var wire 1 & clk $end
$var wire 64 G m_axis_tdata [63:0] $end
$var wire 8 H m_axis_tkeep [7:0] $end
$var wire 1 / m_axis_tlast $end
$var wire 1 0 m_axis_tvalid $end
$var wire 1 ( rst $end
$var wire 64 I s_axis_tdata [63:0] $end
$var wire 8 J s_axis_tkeep [7:0] $end
$var wire 1 + s_axis_tlast $end
$var wire 1 , s_axis_tvalid $end
$var parameter 32 K DWIDTH $end
$var parameter 32 L LATENCY $end
$var integer 32 M i [31:0] $end
$upscope $end
$scope module datapath_inst $end
$var wire 1 & clk $end
$var wire 1 ( rst $end
$var wire 64 N s_axis_tdata [63:0] $end
$var wire 8 O s_axis_tkeep [7:0] $end
$var wire 1 + s_axis_tlast $end
$var wire 1 ! s_axis_tready $end
$var wire 1 , s_axis_tvalid $end
$var wire 1 P tuple_valid $end
$var wire 16 Q src_port [15:0] $end
$var wire 32 R src_ip [31:0] $end
$var wire 8 S protocol [7:0] $end
$var wire 104 T parsed_tuple [103:0] $end
$var wire 1 U parse_error $end
$var wire 1 @ match_valid $end
$var wire 1 A match_found $end
$var wire 1 V hash_valid $end
$var wire 12 W h3 [11:0] $end
$var wire 12 X h2 [11:0] $end
$var wire 12 Y h1 [11:0] $end
$var wire 12 Z h0 [11:0] $end
$var wire 16 [ dst_port [15:0] $end
$var wire 32 \ dst_ip [31:0] $end
$var wire 1 ] b3_v $end
$var wire 128 ^ b3_data [127:0] $end
$var wire 1 _ b2_v $end
$var wire 128 ` b2_data [127:0] $end
$var wire 1 a b1_v $end
$var wire 128 b b1_data [127:0] $end
$var wire 1 c b0_v $end
$var wire 128 d b0_data [127:0] $end
$var wire 1 B action_forward $end
$scope module bank0 $end
$var wire 1 & clk $end
$var wire 1 ( rst $end
$var wire 1 V read_en $end
$var wire 12 e read_addr [11:0] $end
$var parameter 296 f INIT_FILE $end
$var reg 128 g read_data [127:0] $end
$var reg 1 c read_valid $end
$var reg 1 h valid_d1 $end
$upscope $end
$scope module bank1 $end
$var wire 1 & clk $end
$var wire 1 ( rst $end
$var wire 1 V read_en $end
$var wire 12 i read_addr [11:0] $end
$var parameter 296 j INIT_FILE $end
$var reg 128 k read_data [127:0] $end
$var reg 1 a read_valid $end
$var reg 1 l valid_d1 $end
$upscope $end
$scope module bank2 $end
$var wire 1 & clk $end
$var wire 1 ( rst $end
$var wire 1 V read_en $end
$var wire 12 m read_addr [11:0] $end
$var parameter 296 n INIT_FILE $end
$var reg 128 o read_data [127:0] $end
$var reg 1 _ read_valid $end
$var reg 1 p valid_d1 $end
$upscope $end
$scope module bank3 $end
$var wire 1 & clk $end
$var wire 1 ( rst $end
$var wire 1 V read_en $end
$var wire 12 q read_addr [11:0] $end
$var parameter 296 r INIT_FILE $end
$var reg 128 s read_data [127:0] $end
$var reg 1 ] read_valid $end
$var reg 1 t valid_d1 $end
$upscope $end
$scope module hasher $end
$var wire 1 & clk $end
$var wire 12 u h0_comb [11:0] $end
$var wire 12 v h1_comb [11:0] $end
$var wire 12 w h2_comb [11:0] $end
$var wire 12 x h3_comb [11:0] $end
$var wire 1 ( rst $end
$var wire 104 y tuple_in [103:0] $end
$var wire 1 P valid_in $end
$var wire 104 z rev_tuple [103:0] $end
$var reg 12 { hash_0 [11:0] $end
$var reg 12 | hash_1 [11:0] $end
$var reg 12 } hash_2 [11:0] $end
$var reg 12 ~ hash_3 [11:0] $end
$var reg 1 V valid_out $end
$scope begin rev[0] $end
$var parameter 2 !" i $end
$upscope $end
$scope begin rev[1] $end
$var parameter 2 "" i $end
$upscope $end
$scope begin rev[2] $end
$var parameter 3 #" i $end
$upscope $end
$scope begin rev[3] $end
$var parameter 3 $" i $end
$upscope $end
$scope begin rev[4] $end
$var parameter 4 %" i $end
$upscope $end
$scope begin rev[5] $end
$var parameter 4 &" i $end
$upscope $end
$scope begin rev[6] $end
$var parameter 4 '" i $end
$upscope $end
$scope begin rev[7] $end
$var parameter 4 (" i $end
$upscope $end
$scope begin rev[8] $end
$var parameter 5 )" i $end
$upscope $end
$scope begin rev[9] $end
$var parameter 5 *" i $end
$upscope $end
$scope begin rev[10] $end
$var parameter 5 +" i $end
$upscope $end
$scope begin rev[11] $end
$var parameter 5 ," i $end
$upscope $end
$scope begin rev[12] $end
$var parameter 5 -" i $end
$upscope $end
$scope begin rev[13] $end
$var parameter 5 ." i $end
$upscope $end
$scope begin rev[14] $end
$var parameter 5 /" i $end
$upscope $end
$scope begin rev[15] $end
$var parameter 5 0" i $end
$upscope $end
$scope begin rev[16] $end
$var parameter 6 1" i $end
$upscope $end
$scope begin rev[17] $end
$var parameter 6 2" i $end
$upscope $end
$scope begin rev[18] $end
$var parameter 6 3" i $end
$upscope $end
$scope begin rev[19] $end
$var parameter 6 4" i $end
$upscope $end
$scope begin rev[20] $end
$var parameter 6 5" i $end
$upscope $end
$scope begin rev[21] $end
$var parameter 6 6" i $end
$upscope $end
$scope begin rev[22] $end
$var parameter 6 7" i $end
$upscope $end
$scope begin rev[23] $end
$var parameter 6 8" i $end
$upscope $end
$scope begin rev[24] $end
$var parameter 6 9" i $end
$upscope $end
$scope begin rev[25] $end
$var parameter 6 :" i $end
$upscope $end
$scope begin rev[26] $end
$var parameter 6 ;" i $end
$upscope $end
$scope begin rev[27] $end
$var parameter 6 <" i $end
$upscope $end
$scope begin rev[28] $end
$var parameter 6 =" i $end
$upscope $end
$scope begin rev[29] $end
$var parameter 6 >" i $end
$upscope $end
$scope begin rev[30] $end
$var parameter 6 ?" i $end
$upscope $end
$scope begin rev[31] $end
$var parameter 6 @" i $end
$upscope $end
$scope begin rev[32] $end
$var parameter 7 A" i $end
$upscope $end
$scope begin rev[33] $end
$var parameter 7 B" i $end
$upscope $end
$scope begin rev[34] $end
$var parameter 7 C" i $end
$upscope $end
$scope begin rev[35] $end
$var parameter 7 D" i $end
$upscope $end
$scope begin rev[36] $end
$var parameter 7 E" i $end
$upscope $end
$scope begin rev[37] $end
$var parameter 7 F" i $end
$upscope $end
$scope begin rev[38] $end
$var parameter 7 G" i $end
$upscope $end
$scope begin rev[39] $end
$var parameter 7 H" i $end
$upscope $end
$scope begin rev[40] $end
$var parameter 7 I" i $end
$upscope $end
$scope begin rev[41] $end
$var parameter 7 J" i $end
$upscope $end
$scope begin rev[42] $end
$var parameter 7 K" i $end
$upscope $end
$scope begin rev[43] $end
$var parameter 7 L" i $end
$upscope $end
$scope begin rev[44] $end
$var parameter 7 M" i $end
$upscope $end
$scope begin rev[45] $end
$var parameter 7 N" i $end
$upscope $end
$scope begin rev[46] $end
$var parameter 7 O" i $end
$upscope $end
$scope begin rev[47] $end
$var parameter 7 P" i $end
$upscope $end
$scope begin rev[48] $end
$var parameter 7 Q" i $end
$upscope $end
$scope begin rev[49] $end
$var parameter 7 R" i $end
$upscope $end
$scope begin rev[50] $end
$var parameter 7 S" i $end
$upscope $end
$scope begin rev[51] $end
$var parameter 7 T" i $end
$upscope $end
$scope begin rev[52] $end
$var parameter 7 U" i $end
$upscope $end
$scope begin rev[53] $end
$var parameter 7 V" i $end
$upscope $end
$scope begin rev[54] $end
$var parameter 7 W" i $end
$upscope $end
$scope begin rev[55] $end
$var parameter 7 X" i $end
$upscope $end
$scope begin rev[56] $end
$var parameter 7 Y" i $end
$upscope $end
$scope begin rev[57] $end
$var parameter 7 Z" i $end
$upscope $end
$scope begin rev[58] $end
$var parameter 7 [" i $end
$upscope $end
$scope begin rev[59] $end
$var parameter 7 \" i $end
$upscope $end
$scope begin rev[60] $end
$var parameter 7 ]" i $end
$upscope $end
$scope begin rev[61] $end
$var parameter 7 ^" i $end
$upscope $end
$scope begin rev[62] $end
$var parameter 7 _" i $end
$upscope $end
$scope begin rev[63] $end
$var parameter 7 `" i $end
$upscope $end
$scope begin rev[64] $end
$var parameter 8 a" i $end
$upscope $end
$scope begin rev[65] $end
$var parameter 8 b" i $end
$upscope $end
$scope begin rev[66] $end
$var parameter 8 c" i $end
$upscope $end
$scope begin rev[67] $end
$var parameter 8 d" i $end
$upscope $end
$scope begin rev[68] $end
$var parameter 8 e" i $end
$upscope $end
$scope begin rev[69] $end
$var parameter 8 f" i $end
$upscope $end
$scope begin rev[70] $end
$var parameter 8 g" i $end
$upscope $end
$scope begin rev[71] $end
$var parameter 8 h" i $end
$upscope $end
$scope begin rev[72] $end
$var parameter 8 i" i $end
$upscope $end
$scope begin rev[73] $end
$var parameter 8 j" i $end
$upscope $end
$scope begin rev[74] $end
$var parameter 8 k" i $end
$upscope $end
$scope begin rev[75] $end
$var parameter 8 l" i $end
$upscope $end
$scope begin rev[76] $end
$var parameter 8 m" i $end
$upscope $end
$scope begin rev[77] $end
$var parameter 8 n" i $end
$upscope $end
$scope begin rev[78] $end
$var parameter 8 o" i $end
$upscope $end
$scope begin rev[79] $end
$var parameter 8 p" i $end
$upscope $end
$scope begin rev[80] $end
$var parameter 8 q" i $end
$upscope $end
$scope begin rev[81] $end
$var parameter 8 r" i $end
$upscope $end
$scope begin rev[82] $end
$var parameter 8 s" i $end
$upscope $end
$scope begin rev[83] $end
$var parameter 8 t" i $end
$upscope $end
$scope begin rev[84] $end
$var parameter 8 u" i $end
$upscope $end
$scope begin rev[85] $end
$var parameter 8 v" i $end
$upscope $end
$scope begin rev[86] $end
$var parameter 8 w" i $end
$upscope $end
$scope begin rev[87] $end
$var parameter 8 x" i $end
$upscope $end
$scope begin rev[88] $end
$var parameter 8 y" i $end
$upscope $end
$scope begin rev[89] $end
$var parameter 8 z" i $end
$upscope $end
$scope begin rev[90] $end
$var parameter 8 {" i $end
$upscope $end
$scope begin rev[91] $end
$var parameter 8 |" i $end
$upscope $end
$scope begin rev[92] $end
$var parameter 8 }" i $end
$upscope $end
$scope begin rev[93] $end
$var parameter 8 ~" i $end
$upscope $end
$scope begin rev[94] $end
$var parameter 8 !# i $end
$upscope $end
$scope begin rev[95] $end
$var parameter 8 "# i $end
$upscope $end
$scope begin rev[96] $end
$var parameter 8 ## i $end
$upscope $end
$scope begin rev[97] $end
$var parameter 8 $# i $end
$upscope $end
$scope begin rev[98] $end
$var parameter 8 %# i $end
$upscope $end
$scope begin rev[99] $end
$var parameter 8 &# i $end
$upscope $end
$scope begin rev[100] $end
$var parameter 8 '# i $end
$upscope $end
$scope begin rev[101] $end
$var parameter 8 (# i $end
$upscope $end
$scope begin rev[102] $end
$var parameter 8 )# i $end
$upscope $end
$scope begin rev[103] $end
$var parameter 8 *# i $end
$upscope $end
$upscope $end
$scope module matcher $end
$var wire 128 +# b0_data [127:0] $end
$var wire 128 ,# b1_data [127:0] $end
$var wire 128 -# b2_data [127:0] $end
$var wire 128 .# b3_data [127:0] $end
$var wire 1 c bram_valid $end
$var wire 1 & clk $end
$var wire 1 ( rst $end
$var wire 104 /# tuple_in [103:0] $end
$var wire 1 P valid_in $end
$var reg 1 B action_forward $end
$var reg 1 A match_found $end
$var reg 1 @ match_valid $end
$var reg 1 0# s1_b0_action $end
$var reg 1 1# s1_b0_match $end
$var reg 1 2# s1_b1_action $end
$var reg 1 3# s1_b1_match $end
$var reg 1 4# s1_b2_action $end
$var reg 1 5# s1_b2_match $end
$var reg 1 6# s1_b3_action $end
$var reg 1 7# s1_b3_match $end
$var reg 1 8# s1_valid $end
$var integer 32 9# i [31:0] $end
$upscope $end
$scope module parser $end
$var wire 1 & clk $end
$var wire 1 ( rst $end
$var wire 64 :# s_axis_tdata [63:0] $end
$var wire 8 ;# s_axis_tkeep [7:0] $end
$var wire 1 + s_axis_tlast $end
$var wire 1 ! s_axis_tready $end
$var wire 1 , s_axis_tvalid $end
$var reg 32 <# dst_ip [31:0] $end
$var reg 16 =# dst_port [15:0] $end
$var reg 16 ># ethertype [15:0] $end
$var reg 1 U parse_error $end
$var reg 1 ?# parsing $end
$var reg 8 @# protocol [7:0] $end
$var reg 32 A# src_ip [31:0] $end
$var reg 16 B# src_port [15:0] $end
$var reg 1 P tuple_valid $end
$var reg 4 C# word_cnt [3:0] $end
$upscope $end
$upscope $end
$scope module encoder_inst $end
$var wire 1 & clk $end
$var wire 1 ( rst $end
$var wire 16 D# src_port [15:0] $end
$var wire 32 E# src_ip [31:0] $end
$var wire 8 F# protocol [7:0] $end
$var wire 1 5 meta_valid $end
$var wire 16 G# dst_port [15:0] $end
$var wire 32 H# dst_ip [31:0] $end
$var reg 8 I# out_spikes [7:0] $end
$var reg 1 8 spike_valid $end
$upscope $end
$scope module parser_snn_inst $end
$var wire 1 & clk $end
$var wire 1 ( rst $end
$var wire 64 J# s_axis_tdata [63:0] $end
$var wire 8 K# s_axis_tkeep [7:0] $end
$var wire 1 + s_axis_tlast $end
$var wire 1 L# s_axis_tready $end
$var wire 1 , s_axis_tvalid $end
$var reg 32 M# dst_ip [31:0] $end
$var reg 16 N# dst_port [15:0] $end
$var reg 16 O# ethertype [15:0] $end
$var reg 1 = parse_error $end
$var reg 1 P# parsing $end
$var reg 8 Q# protocol [7:0] $end
$var reg 32 R# src_ip [31:0] $end
$var reg 16 S# src_port [15:0] $end
$var reg 1 5 tuple_valid $end
$var reg 4 T# word_cnt [3:0] $end
$upscope $end
$scope module snn_core $end
$var wire 1 & clk $end
$var wire 8 U# in_spikes [7:0] $end
$var wire 1 ( rst $end
$var wire 1 8 valid_in $end
$var wire 2 V# out_spikes [1:0] $end
$var reg 16 W# current_n0 [15:0] $end
$var reg 16 X# current_n0_reg [15:0] $end
$var reg 16 Y# current_n1 [15:0] $end
$var reg 16 Z# current_n1_reg [15:0] $end
$var reg 1 : valid_out $end
$var reg 1 [# valid_reg_1 $end
$var reg 1 \# valid_reg_2 $end
$var reg 1 ]# valid_reg_3 $end
$var integer 32 ^# i [31:0] $end
$scope module neuron_anomaly $end
$var wire 1 & clk $end
$var wire 1 ( rst $end
$var wire 16 _# syn_current [15:0] $end
$var wire 1 [# valid_in $end
$var wire 16 `# u_decayed [15:0] $end
$var wire 16 a# syn_input [15:0] $end
$var wire 16 b# leak_amount [15:0] $end
$var parameter 32 c# DATA_WIDTH $end
$var parameter 32 d# LEAK_SHIFT $end
$var parameter 16 e# THRESHOLD $end
$var reg 16 f# membrane_u [15:0] $end
$var reg 1 g# spike_out $end
$var reg 16 h# u_temp_reg [15:0] $end
$upscope $end
$scope module neuron_safe $end
$var wire 1 & clk $end
$var wire 1 ( rst $end
$var wire 16 i# syn_current [15:0] $end
$var wire 1 [# valid_in $end
$var wire 16 j# u_decayed [15:0] $end
$var wire 16 k# syn_input [15:0] $end
$var wire 16 l# leak_amount [15:0] $end
$var parameter 32 m# DATA_WIDTH $end
$var parameter 32 n# LEAK_SHIFT $end
$var parameter 16 o# THRESHOLD $end
$var reg 16 p# membrane_u [15:0] $end
$var reg 1 q# spike_out $end
$var reg 16 r# u_temp_reg [15:0] $end
$upscope $end
$upscope $end
$upscope $end
$upscope $end
$enddefinitions $end
$comment Show the parameter values. $end
$dumpall
b1111101000 o#
b11 n#
b10000 m#
b1111101000 e#
b11 d#
b10000 c#
b1100111 *#
b1100110 )#
b1100101 (#
b1100100 '#
b1100011 &#
b1100010 %#
b1100001 $#
b1100000 ##
b1011111 "#
b1011110 !#
b1011101 ~"
b1011100 }"
b1011011 |"
b1011010 {"
b1011001 z"
b1011000 y"
b1010111 x"
b1010110 w"
b1010101 v"
b1010100 u"
b1010011 t"
b1010010 s"
b1010001 r"
b1010000 q"
b1001111 p"
b1001110 o"
b1001101 n"
b1001100 m"
b1001011 l"
b1001010 k"
b1001001 j"
b1001000 i"
b1000111 h"
b1000110 g"
b1000101 f"
b1000100 e"
b1000011 d"
b1000010 c"
b1000001 b"
b1000000 a"
b111111 `"
b111110 _"
b111101 ^"
b111100 ]"
b111011 \"
b111010 ["
b111001 Z"
b111000 Y"
b110111 X"
b110110 W"
b110101 V"
b110100 U"
b110011 T"
b110010 S"
b110001 R"
b110000 Q"
b101111 P"
b101110 O"
b101101 N"
b101100 M"
b101011 L"
b101010 K"
b101001 J"
b101000 I"
b100111 H"
b100110 G"
b100101 F"
b100100 E"
b100011 D"
b100010 C"
b100001 B"
b100000 A"
b11111 @"
b11110 ?"
b11101 >"
b11100 ="
b11011 <"
b11010 ;"
b11001 :"
b11000 9"
b10111 8"
b10110 7"
b10101 6"
b10100 5"
b10011 4"
b10010 3"
b10001 2"
b10000 1"
b1111 0"
b1110 /"
b1101 ."
b1100 -"
b1011 ,"
b1010 +"
b1001 *"
b1000 )"
b111 ("
b110 '"
b101 &"
b100 %"
b11 $"
b10 #"
b1 ""
b0 !"
b101110001011100010111100101110001011100010111100110000001101110101111101010011011010010110110101110101011011000110000101110100011010010110111101101110011100110010111101110011011010010110110100110000001100000011010100101111011000100110000101101110011010110011001100101110011011010110010101101101 r
b101110001011100010111100101110001011100010111100110000001101110101111101010011011010010110110101110101011011000110000101110100011010010110111101101110011100110010111101110011011010010110110100110000001100000011010100101111011000100110000101101110011010110011001000101110011011010110010101101101 n
b101110001011100010111100101110001011100010111100110000001101110101111101010011011010010110110101110101011011000110000101110100011010010110111101101110011100110010111101110011011010010110110100110000001100000011010100101111011000100110000101101110011010110011000100101110011011010110010101101101 j
b101110001011100010111100101110001011100010111100110000001101110101111101010011011010010110110101110101011011000110000101110100011010010110111101101110011100110010111101110011011010010110110100110000001100000011010100101111011000100110000101101110011010110011000000101110011011010110010101101101 f
b110 L
b1000000 K
$end
#0
$dumpvars
bx r#
xq#
bx p#
bx l#
bx k#
bx j#
bx i#
bx h#
xg#
bx f#
bx b#
bx a#
bx `#
bx _#
b1000 ^#
x]#
x\#
x[#
bx Z#
b0 Y#
bx X#
b0 W#
bx V#
bx U#
bx T#
bx S#
bx R#
bx Q#
xP#
bx O#
bx N#
bx M#
1L#
bx K#
b0 J#
bx I#
bx H#
bx G#
bx F#
bx E#
bx D#
bx C#
bx B#
bx A#
bx @#
x?#
bx >#
bx =#
bx <#
bx ;#
b0 :#
bx 9#
x8#
x7#
x6#
x5#
x4#
x3#
x2#
x1#
x0#
bx /#
bx .#
bx -#
bx ,#
bx +#
bx ~
bx }
bx |
bx {
bx z
bx y
bx x
bx w
bx v
bx u
xt
bx s
bx q
xp
bx o
bx m
xl
bx k
bx i
xh
bx g
bx e
bx d
xc
bx b
xa
bx `
x_
bx ^
x]
bx \
bx [
bx Z
bx Y
bx X
bx W
xV
xU
bx T
bx S
bx R
bx Q
xP
bx O
b0 N
bx M
bx J
b0 I
bx H
bx G
xF
xE
xD
xC
xB
xA
x@
bx ?
bx >
x=
bx <
bx ;
x:
bx 9
x8
bx 7
bx 6
x5
bx 4
b0 3
bx 2
bx 1
x0
x/
bx .
bx -
0,
x+
bx *
b0 )
1(
1'
0&
bx %
bx $
x#
x"
1!
$end
#3200
b100001101111 x
b100111110111 w
b10100000000 v
b101000000000 u
b1000 ^#
b0 j#
b0 l#
b0 `#
b0 b#
b0 a#
b0 k#
b0 z
0"
b0 O#
b0 <
b0 F#
b0 Q#
b0 >
b0 G#
b0 N#
b0 6
b0 D#
b0 S#
b0 ?
b0 H#
b0 M#
b0 7
b0 E#
b0 R#
0=
05
0P#
b0 T#
08
b0 9
b0 I#
b0 U#
b0 r#
0q#
b0 p#
b0 h#
b0 ;
b0 V#
0g#
b0 f#
0:
0]#
0\#
0[#
b0 Z#
b0 _#
b0 X#
b0 i#
b0 >#
b0 S
b0 @#
b0 [
b0 =#
b0 Q
b0 B#
b0 \
b0 <#
b0 T
b0 y
b0 /#
b0 R
b0 A#
0U
0P
0?#
b0 C#
0V
b0 W
b0 q
b0 ~
b0 X
b0 m
b0 }
b0 Y
b0 i
b0 |
b0 Z
b0 e
b0 {
0h
0c
b0 d
b0 g
b0 +#
0l
0a
b0 b
b0 k
b0 ,#
0p
0_
b0 `
b0 o
b0 -#
0t
0]
b0 ^
b0 s
b0 .#
0@
0B
0A
08#
06#
04#
02#
00#
07#
05#
03#
01#
00
0#
0/
b0 $
b0 2
b0 .
b0 H
b0 %
b0 1
b0 -
b0 G
0C
0D
0E
0F
b11 9#
b110 M
1&
#6400
0&
#9600
b110 M
b11 9#
1&
#12800
0&
#16000
b11 9#
b110 M
1&
#19200
0&
#22400
b110 M
b11 9#
1&
#25600
0&
#28800
b11 9#
b110 M
1&
#32000
0&
#35200
b110 M
b11 9#
1&
#38400
0&
#41600
b11 9#
b110 M
1&
#44800
0&
#48000
b110 M
b11 9#
1&
#51200
0&
#54400
b11 9#
b110 M
1&
#57600
0&
#60800
b110 M
b11 9#
1&
#64000
0&
#67200
b11 9#
b110 M
1&
#70400
0&
#73600
b110 M
b11 9#
1&
#76800
0&
#80000
b11 9#
b110 M
1&
#83200
0&
#86400
b110 M
b11 9#
1&
#89600
0&
#92800
b11 9#
b110 M
1&
#96000
0&
#99200
b110 M
b11 9#
1&
#100000
0(
#102400
0&
#105600
b110 M
1&
#108800
0&
#112000
b110 M
1&
#115200
0&
#118400
b110 M
1&
#121600
0&
#124800
b110 M
1&
#128000
0&
#131200
b110 M
1&
#134400
0&
#137600
x#
x/
bx $
bx 2
bx .
bx H
b110 M
1&
#140800
0&
#144000
b110 M
1&
#147200
0&
#150000
b101101011111110110010101111111010111110111011110000000000000001 )
b101101011111110110010101111111010111110111011110000000000000001 3
b101101011111110110010101111111010111110111011110000000000000001 I
b101101011111110110010101111111010111110111011110000000000000001 N
b101101011111110110010101111111010111110111011110000000000000001 :#
b101101011111110110010101111111010111110111011110000000000000001 J#
1,
1B
1@
b110 <
b110 F#
b110 Q#
b1010000 >
b1010000 G#
b1010000 N#
b10011100010000 6
b10011100010000 D#
b10011100010000 S#
b1000000010000000100000001000 ?
b1000000010000000100000001000 H#
b1000000010000000100000001000 M#
b1010000000000000000000000001 7
b1010000000000000000000000001 E#
b1010000000000000000000000001 R#
15
#150400
b10100000 Y#
b1011010 W#
b1000 ^#
1D
1E
b1 C#
1?#
b10000101 9
b10000101 I#
b10000101 U#
18
b1 T#
1P#
b110 M
1&
#153600
0&
#156400
b0 )
b0 3
b0 I
b0 N
b0 :#
b0 J#
0,
#156800
b10100000 a#
b1011010 k#
b10100000 Z#
b10100000 _#
b1011010 X#
b1011010 i#
1[#
1F
b110 M
1&
#160000
0&
#163200
1\#
b10100000 h#
b1011010 r#
b110 M
1&
#166400
0&
#169600
b1011 l#
b10100 b#
b1001111 j#
b1011010 p#
b10001100 `#
b10100000 f#
1]#
b110 M
1&
#172800
0&
#176000
1:
b100101100 h#
b10101001 r#
b110 M
1&
#179200
0&
#182400
b10101 l#
b100101 b#
1"
b10010100 j#
b10101001 p#
b100000111 `#
b100101100 f#
10
b101101011111110110010101111111010111110111011110000000000000001 %
b101101011111110110010101111111010111110111011110000000000000001 1
b101101011111110110010101111111010111110111011110000000000000001 -
b101101011111110110010101111111010111110111011110000000000000001 G
b110 M
1&
#185600
0&
#188800
0"
00
b0 %
b0 1
b0 -
b0 G
b110100111 h#
b11101110 r#
b110 M
1&
#192000
0&
#195200
b11101 l#
b110100 b#
b11010001 j#
b11101110 p#
b101110011 `#
b110100111 f#
b110 M
1&
#198400
0&
#201600
b1000010011 h#
b100101011 r#
b110 M
1&
#204800
0&
#208000
b100101 l#
b1000010 b#
b100000110 j#
b100101011 p#
b111010001 `#
b1000010011 f#
b110 M
1&
#211200
0&
#214400
b1001110001 h#
b101100000 r#
b110 M
1&
#217600
0&
#220800
b101100 l#
b1001110 b#
b100110100 j#
b101100000 p#
b1000100011 `#
b1001110001 f#
b110 M
1&
#224000
0&
#227200
b1011000011 h#
b110001110 r#
b110 M
1&
#230400
0&
#233600
b110001 l#
b1011000 b#
b101011101 j#
b110001110 p#
b1001101011 `#
b1011000011 f#
b110 M
1&
#236800
0&
#240000
b1100001011 h#
b110110111 r#
b110 M
1&
#243200
0&
#246400
b110110 l#
b1100001 b#
b110000001 j#
b110110111 p#
b1010101010 `#
b1100001011 f#
b110 M
1&
#249600
0&
#252800
b1101001010 h#
b111011011 r#
b110 M
1&
#256000
0&
#259200
b111011 l#
b1101001 b#
b110100000 j#
b111011011 p#
b1011100001 `#
b1101001010 f#
b110 M
1&
#262400
0&
#265600
b1110000001 h#
b111111010 r#
b110 M
1&
#268800
0&
#272000
b111111 l#
b1110000 b#
b110111011 j#
b111111010 p#
b1100010001 `#
b1110000001 f#
b110 M
1&
#275200
0&
#278400
b1110110001 h#
b1000010101 r#
b110 M
1&
#281600
0&
#284800
b1000010 l#
b1110110 b#
b111010011 j#
b1000010101 p#
b1100111011 `#
b1110110001 f#
b110 M
1&
#288000
0&
#291200
b1111011011 h#
b1000101101 r#
b110 M
1&
#294400
0&
#297600
b1000101 l#
b1111011 b#
b111101000 j#
b1000101101 p#
b1101100000 `#
b1111011011 f#
b110 M
1&
#300800
0&
#304000
b10000000000 h#
b1001000010 r#
b110 M
1&
#307200
0&
#310400
b1001000 l#
b0 b#
b111111010 j#
b1001000010 p#
b0 `#
b0 f#
b10 ;
b10 V#
1g#
b110 M
1&
#313600
0&
#316800
1C
b10100000 h#
b1001010100 r#
b110 M
1&
#320000
0&
#323200
b1001010 l#
b10100 b#
b1000001010 j#
b1001010100 p#
b10001100 `#
b10100000 f#
b0 ;
b0 V#
0g#
0F
b110 M
1&
#326400
0&
#329600
b100101100 h#
b1001100100 r#
b110 M
1&
#332800
0&
#336000
b1001100 l#
b100101 b#
b1000011000 j#
b1001100100 p#
b100000111 `#
b100101100 f#
b110 M
1&
#339200
0&
#342400
b110100111 h#
b1001110010 r#
b110 M
1&
#345600
0&
#348800
b1001110 l#
b110100 b#
b1000100100 j#
b1001110010 p#
b101110011 `#
b110100111 f#
b110 M
1&
#352000
0&
#355200
b1000010011 h#
b1001111110 r#
b110 M
1&
#358400
0&
#361600
b1001111 l#
b1000010 b#
b1000101111 j#
b1001111110 p#
b111010001 `#
b1000010011 f#
b110 M
1&
#364800
0&
#368000
b1001110001 h#
b1010001001 r#
b110 M
1&
#371200
0&
#374400
b1010001 l#
b1001110 b#
b1000111000 j#
b1010001001 p#
b1000100011 `#
b1001110001 f#
b110 M
1&
#377600
0&
#380800
b1011000011 h#
b1010010010 r#
b110 M
1&
#384000
0&
#387200
b1010010 l#
b1011000 b#
b1001000000 j#
b1010010010 p#
b1001101011 `#
b1011000011 f#
b110 M
1&
#390400
0&
#393600
b1100001011 h#
b1010011010 r#
b110 M
1&
#396800
0&
#400000
b1010011 l#
b1100001 b#
b1001000111 j#
b1010011010 p#
b1010101010 `#
b1100001011 f#
b110 M
1&
#403200
0&
#406400
b1000 ^#
b11001000 Y#
b0 W#
b1101001010 h#
b1010100001 r#
b11011010 9
b11011010 I#
b11011010 U#
b110 M
1&
b10001 <
b10001 F#
b10001 Q#
b110101 >
b110101 G#
b110101 N#
b1100001101010000 6
b1100001101010000 D#
b1100001101010000 S#
b1000000010000000100011111111 ?
b1000000010000000100011111111 H#
b1000000010000000100011111111 M#
b1010000000000000000000000001 7
b1010000000000000000000000001 E#
b1010000000000000000000000001 R#
#409600
0&
#412800
b1010100 l#
b1101001 b#
b11001000 a#
b0 k#
b1001001101 j#
b1010100001 p#
b1011100001 `#
b1101001010 f#
b11001000 Z#
b11001000 _#
b0 X#
b0 i#
b110 M
1&
#416000
0&
#419200
b1110101001 h#
b1001001101 r#
b110 M
1&
#422400
0&
#425600
b1001001 l#
b1110101 b#
b1000000100 j#
b1001001101 p#
b1100110100 `#
b1110101001 f#
b110 M
1&
#428800
0&
#432000
b1111111100 h#
b1000000100 r#
b110 M
1&
#435200
0&
#438400
b1000000 l#
b0 b#
b111000100 j#
b1000000100 p#
b0 `#
b0 f#
b10 ;
b10 V#
1g#
b110 M
1&
#441600
0&
