.history_payload/flattened/ev19/sim/tb_ha_tff_system_top.vcd
$date
	Fri Jun 26 17:41:19 2026
$end
$version
	Icarus Verilog
$end
$timescale
	1ps
$end
$scope module tb_ha_tff_system_top $end
$var wire 1 ! s_axis_tready $end
$var wire 1 " m_axis_tvalid $end
$var wire 1 # m_axis_tlast $end
$var wire 8 $ m_axis_tkeep [7:0] $end
$var wire 64 % m_axis_tdata [63:0] $end
$var reg 1 & clk $end
$var reg 1 ' m_axis_tready $end
$var reg 1 ( rst $end
$var reg 64 ) s_axis_tdata [63:0] $end
$var reg 8 * s_axis_tkeep [7:0] $end
$var reg 1 + s_axis_tlast $end
$var reg 1 , s_axis_tvalid $end
$scope module uut $end
$var wire 1 & clk $end
$var wire 1 - final_forward $end
$var wire 64 . m_axis_tdata [63:0] $end
$var wire 8 / m_axis_tkeep [7:0] $end
$var wire 1 # m_axis_tlast $end
$var wire 1 ' m_axis_tready $end
$var wire 1 " m_axis_tvalid $end
$var wire 1 ( rst $end
$var wire 64 0 s_axis_tdata [63:0] $end
$var wire 8 1 s_axis_tkeep [7:0] $end
$var wire 1 + s_axis_tlast $end
$var wire 1 ! s_axis_tready $end
$var wire 1 , s_axis_tvalid $end
$var wire 1 2 tuple_valid $end
$var wire 16 3 src_port [15:0] $end
$var wire 32 4 src_ip [31:0] $end
$var wire 1 5 snn_spikes_valid $end
$var wire 8 6 snn_spikes_in [7:0] $end
$var wire 1 7 snn_out_valid $end
$var wire 2 8 snn_out_spikes [1:0] $end
$var wire 8 9 protocol [7:0] $end
$var wire 1 : parse_error $end
$var wire 16 ; dst_port [15:0] $end
$var wire 32 < dst_ip [31:0] $end
$var wire 1 = dp_match_valid $end
$var wire 1 > dp_match_found $end
$var wire 1 ? dp_action_forward $end
$var reg 1 @ anomaly_detected $end
$scope module datapath_inst $end
$var wire 1 & clk $end
$var wire 1 ( rst $end
$var wire 64 A s_axis_tdata [63:0] $end
$var wire 8 B s_axis_tkeep [7:0] $end
$var wire 1 + s_axis_tlast $end
$var wire 1 ! s_axis_tready $end
$var wire 1 , s_axis_tvalid $end
$var wire 1 C tuple_valid $end
$var wire 16 D src_port [15:0] $end
$var wire 32 E src_ip [31:0] $end
$var wire 8 F protocol [7:0] $end
$var wire 104 G parsed_tuple [103:0] $end
$var wire 1 H parse_error $end
$var wire 1 = match_valid $end
$var wire 1 > match_found $end
$var wire 1 I hash_valid $end
$var wire 12 J h3 [11:0] $end
$var wire 12 K h2 [11:0] $end
$var wire 12 L h1 [11:0] $end
$var wire 12 M h0 [11:0] $end
$var wire 16 N dst_port [15:0] $end
$var wire 32 O dst_ip [31:0] $end
$var wire 1 P b3_v $end
$var wire 128 Q b3_data [127:0] $end
$var wire 1 R b2_v $end
$var wire 128 S b2_data [127:0] $end
$var wire 1 T b1_v $end
$var wire 128 U b1_data [127:0] $end
$var wire 1 V b0_v $end
$var wire 128 W b0_data [127:0] $end
$var wire 1 ? action_forward $end
$scope module bank0 $end
$var wire 1 & clk $end
$var wire 1 ( rst $end
$var wire 1 I read_en $end
$var wire 12 X read_addr [11:0] $end
$var parameter 296 Y INIT_FILE $end
$var reg 128 Z read_data [127:0] $end
$var reg 1 V read_valid $end
$var reg 1 [ valid_d1 $end
$upscope $end
$scope module bank1 $end
$var wire 1 & clk $end
$var wire 1 ( rst $end
$var wire 1 I read_en $end
$var wire 12 \ read_addr [11:0] $end
$var parameter 296 ] INIT_FILE $end
$var reg 128 ^ read_data [127:0] $end
$var reg 1 T read_valid $end
$var reg 1 _ valid_d1 $end
$upscope $end
$scope module bank2 $end
$var wire 1 & clk $end
$var wire 1 ( rst $end
$var wire 1 I read_en $end
$var wire 12 ` read_addr [11:0] $end
$var parameter 296 a INIT_FILE $end
$var reg 128 b read_data [127:0] $end
$var reg 1 R read_valid $end
$var reg 1 c valid_d1 $end
$upscope $end
$scope module bank3 $end
$var wire 1 & clk $end
$var wire 1 ( rst $end
$var wire 1 I read_en $end
$var wire 12 d read_addr [11:0] $end
$var parameter 296 e INIT_FILE $end
$var reg 128 f read_data [127:0] $end
$var reg 1 P read_valid $end
$var reg 1 g valid_d1 $end
$upscope $end
$scope module hasher $end
$var wire 1 & clk $end
$var wire 12 h h0_comb [11:0] $end
$var wire 12 i h1_comb [11:0] $end
$var wire 12 j h2_comb [11:0] $end
$var wire 12 k h3_comb [11:0] $end
$var wire 1 ( rst $end
$var wire 104 l tuple_in [103:0] $end
$var wire 1 C valid_in $end
$var wire 104 m rev_tuple [103:0] $end
$var reg 12 n hash_0 [11:0] $end
$var reg 12 o hash_1 [11:0] $end
$var reg 12 p hash_2 [11:0] $end
$var reg 12 q hash_3 [11:0] $end
$var reg 1 I valid_out $end
$scope begin rev[0] $end
$var parameter 2 r i $end
$upscope $end
$scope begin rev[1] $end
$var parameter 2 s i $end
$upscope $end
$scope begin rev[2] $end
$var parameter 3 t i $end
$upscope $end
$scope begin rev[3] $end
$var parameter 3 u i $end
$upscope $end
$scope begin rev[4] $end
$var parameter 4 v i $end
$upscope $end
$scope begin rev[5] $end
$var parameter 4 w i $end
$upscope $end
$scope begin rev[6] $end
$var parameter 4 x i $end
$upscope $end
$scope begin rev[7] $end
$var parameter 4 y i $end
$upscope $end
$scope begin rev[8] $end
$var parameter 5 z i $end
$upscope $end
$scope begin rev[9] $end
$var parameter 5 { i $end
$upscope $end
$scope begin rev[10] $end
$var parameter 5 | i $end
$upscope $end
$scope begin rev[11] $end
$var parameter 5 } i $end
$upscope $end
$scope begin rev[12] $end
$var parameter 5 ~ i $end
$upscope $end
$scope begin rev[13] $end
$var parameter 5 !" i $end
$upscope $end
$scope begin rev[14] $end
$var parameter 5 "" i $end
$upscope $end
$scope begin rev[15] $end
$var parameter 5 #" i $end
$upscope $end
$scope begin rev[16] $end
$var parameter 6 $" i $end
$upscope $end
$scope begin rev[17] $end
$var parameter 6 %" i $end
$upscope $end
$scope begin rev[18] $end
$var parameter 6 &" i $end
$upscope $end
$scope begin rev[19] $end
$var parameter 6 '" i $end
$upscope $end
$scope begin rev[20] $end
$var parameter 6 (" i $end
$upscope $end
$scope begin rev[21] $end
$var parameter 6 )" i $end
$upscope $end
$scope begin rev[22] $end
$var parameter 6 *" i $end
$upscope $end
$scope begin rev[23] $end
$var parameter 6 +" i $end
$upscope $end
$scope begin rev[24] $end
$var parameter 6 ," i $end
$upscope $end
$scope begin rev[25] $end
$var parameter 6 -" i $end
$upscope $end
$scope begin rev[26] $end
$var parameter 6 ." i $end
$upscope $end
$scope begin rev[27] $end
$var parameter 6 /" i $end
$upscope $end
$scope begin rev[28] $end
$var parameter 6 0" i $end
$upscope $end
$scope begin rev[29] $end
$var parameter 6 1" i $end
$upscope $end
$scope begin rev[30] $end
$var parameter 6 2" i $end
$upscope $end
$scope begin rev[31] $end
$var parameter 6 3" i $end
$upscope $end
$scope begin rev[32] $end
$var parameter 7 4" i $end
$upscope $end
$scope begin rev[33] $end
$var parameter 7 5" i $end
$upscope $end
$scope begin rev[34] $end
$var parameter 7 6" i $end
$upscope $end
$scope begin rev[35] $end
$var parameter 7 7" i $end
$upscope $end
$scope begin rev[36] $end
$var parameter 7 8" i $end
$upscope $end
$scope begin rev[37] $end
$var parameter 7 9" i $end
$upscope $end
$scope begin rev[38] $end
$var parameter 7 :" i $end
$upscope $end
$scope begin rev[39] $end
$var parameter 7 ;" i $end
$upscope $end
$scope begin rev[40] $end
$var parameter 7 <" i $end
$upscope $end
$scope begin rev[41] $end
$var parameter 7 =" i $end
$upscope $end
$scope begin rev[42] $end
$var parameter 7 >" i $end
$upscope $end
$scope begin rev[43] $end
$var parameter 7 ?" i $end
$upscope $end
$scope begin rev[44] $end
$var parameter 7 @" i $end
$upscope $end
$scope begin rev[45] $end
$var parameter 7 A" i $end
$upscope $end
$scope begin rev[46] $end
$var parameter 7 B" i $end
$upscope $end
$scope begin rev[47] $end
$var parameter 7 C" i $end
$upscope $end
$scope begin rev[48] $end
$var parameter 7 D" i $end
$upscope $end
$scope begin rev[49] $end
$var parameter 7 E" i $end
$upscope $end
$scope begin rev[50] $end
$var parameter 7 F" i $end
$upscope $end
$scope begin rev[51] $end
$var parameter 7 G" i $end
$upscope $end
$scope begin rev[52] $end
$var parameter 7 H" i $end
$upscope $end
$scope begin rev[53] $end
$var parameter 7 I" i $end
$upscope $end
$scope begin rev[54] $end
$var parameter 7 J" i $end
$upscope $end
$scope begin rev[55] $end
$var parameter 7 K" i $end
$upscope $end
$scope begin rev[56] $end
$var parameter 7 L" i $end
$upscope $end
$scope begin rev[57] $end
$var parameter 7 M" i $end
$upscope $end
$scope begin rev[58] $end
$var parameter 7 N" i $end
$upscope $end
$scope begin rev[59] $end
$var parameter 7 O" i $end
$upscope $end
$scope begin rev[60] $end
$var parameter 7 P" i $end
$upscope $end
$scope begin rev[61] $end
$var parameter 7 Q" i $end
$upscope $end
$scope begin rev[62] $end
$var parameter 7 R" i $end
$upscope $end
$scope begin rev[63] $end
$var parameter 7 S" i $end
$upscope $end
$scope begin rev[64] $end
$var parameter 8 T" i $end
$upscope $end
$scope begin rev[65] $end
$var parameter 8 U" i $end
$upscope $end
$scope begin rev[66] $end
$var parameter 8 V" i $end
$upscope $end
$scope begin rev[67] $end
$var parameter 8 W" i $end
$upscope $end
$scope begin rev[68] $end
$var parameter 8 X" i $end
$upscope $end
$scope begin rev[69] $end
$var parameter 8 Y" i $end
$upscope $end
$scope begin rev[70] $end
$var parameter 8 Z" i $end
$upscope $end
$scope begin rev[71] $end
$var parameter 8 [" i $end
$upscope $end
$scope begin rev[72] $end
$var parameter 8 \" i $end
$upscope $end
$scope begin rev[73] $end
$var parameter 8 ]" i $end
$upscope $end
$scope begin rev[74] $end
$var parameter 8 ^" i $end
$upscope $end
$scope begin rev[75] $end
$var parameter 8 _" i $end
$upscope $end
$scope begin rev[76] $end
$var parameter 8 `" i $end
$upscope $end
$scope begin rev[77] $end
$var parameter 8 a" i $end
$upscope $end
$scope begin rev[78] $end
$var parameter 8 b" i $end
$upscope $end
$scope begin rev[79] $end
$var parameter 8 c" i $end
$upscope $end
$scope begin rev[80] $end
$var parameter 8 d" i $end
$upscope $end
$scope begin rev[81] $end
$var parameter 8 e" i $end
$upscope $end
$scope begin rev[82] $end
$var parameter 8 f" i $end
$upscope $end
$scope begin rev[83] $end
$var parameter 8 g" i $end
$upscope $end
$scope begin rev[84] $end
$var parameter 8 h" i $end
$upscope $end
$scope begin rev[85] $end
$var parameter 8 i" i $end
$upscope $end
$scope begin rev[86] $end
$var parameter 8 j" i $end
$upscope $end
$scope begin rev[87] $end
$var parameter 8 k" i $end
$upscope $end
$scope begin rev[88] $end
$var parameter 8 l" i $end
$upscope $end
$scope begin rev[89] $end
$var parameter 8 m" i $end
$upscope $end
$scope begin rev[90] $end
$var parameter 8 n" i $end
$upscope $end
$scope begin rev[91] $end
$var parameter 8 o" i $end
$upscope $end
$scope begin rev[92] $end
$var parameter 8 p" i $end
$upscope $end
$scope begin rev[93] $end
$var parameter 8 q" i $end
$upscope $end
$scope begin rev[94] $end
$var parameter 8 r" i $end
$upscope $end
$scope begin rev[95] $end
$var parameter 8 s" i $end
$upscope $end
$scope begin rev[96] $end
$var parameter 8 t" i $end
$upscope $end
$scope begin rev[97] $end
$var parameter 8 u" i $end
$upscope $end
$scope begin rev[98] $end
$var parameter 8 v" i $end
$upscope $end
$scope begin rev[99] $end
$var parameter 8 w" i $end
$upscope $end
$scope begin rev[100] $end
$var parameter 8 x" i $end
$upscope $end
$scope begin rev[101] $end
$var parameter 8 y" i $end
$upscope $end
$scope begin rev[102] $end
$var parameter 8 z" i $end
$upscope $end
$scope begin rev[103] $end
$var parameter 8 {" i $end
$upscope $end
$upscope $end
$scope module matcher $end
$var wire 128 |" b0_data [127:0] $end
$var wire 128 }" b1_data [127:0] $end
$var wire 128 ~" b2_data [127:0] $end
$var wire 128 !# b3_data [127:0] $end
$var wire 1 V bram_valid $end
$var wire 1 & clk $end
$var wire 1 ( rst $end
$var wire 104 "# tuple_in [103:0] $end
$var wire 1 C valid_in $end
$var reg 1 ? action_forward $end
$var reg 1 > match_found $end
$var reg 1 = match_valid $end
$var reg 1 ## s1_b0_action $end
$var reg 1 $# s1_b0_match $end
$var reg 1 %# s1_b1_action $end
$var reg 1 &# s1_b1_match $end
$var reg 1 '# s1_b2_action $end
$var reg 1 (# s1_b2_match $end
$var reg 1 )# s1_b3_action $end
$var reg 1 *# s1_b3_match $end
$var reg 1 +# s1_valid $end
$var integer 32 ,# i [31:0] $end
$upscope $end
$scope module parser $end
$var wire 1 & clk $end
$var wire 1 ( rst $end
$var wire 64 -# s_axis_tdata [63:0] $end
$var wire 8 .# s_axis_tkeep [7:0] $end
$var wire 1 + s_axis_tlast $end
$var wire 1 ! s_axis_tready $end
$var wire 1 , s_axis_tvalid $end
$var reg 32 /# dst_ip [31:0] $end
$var reg 16 0# dst_port [15:0] $end
$var reg 16 1# ethertype [15:0] $end
$var reg 1 H parse_error $end
$var reg 1 2# parsing $end
$var reg 8 3# protocol [7:0] $end
$var reg 32 4# src_ip [31:0] $end
$var reg 16 5# src_port [15:0] $end
$var reg 1 C tuple_valid $end
$var reg 4 6# word_cnt [3:0] $end
$upscope $end
$upscope $end
$scope module encoder_inst $end
$var wire 1 & clk $end
$var wire 1 ( rst $end
$var wire 16 7# src_port [15:0] $end
$var wire 32 8# src_ip [31:0] $end
$var wire 8 9# protocol [7:0] $end
$var wire 1 2 meta_valid $end
$var wire 16 :# dst_port [15:0] $end
$var wire 32 ;# dst_ip [31:0] $end
$var reg 8 <# out_spikes [7:0] $end
$var reg 1 5 spike_valid $end
$upscope $end
$scope module parser_snn_inst $end
$var wire 1 & clk $end
$var wire 1 ( rst $end
$var wire 64 =# s_axis_tdata [63:0] $end
$var wire 8 ># s_axis_tkeep [7:0] $end
$var wire 1 + s_axis_tlast $end
$var wire 1 ?# s_axis_tready $end
$var wire 1 , s_axis_tvalid $end
$var reg 32 @# dst_ip [31:0] $end
$var reg 16 A# dst_port [15:0] $end
$var reg 16 B# ethertype [15:0] $end
$var reg 1 : parse_error $end
$var reg 1 C# parsing $end
$var reg 8 D# protocol [7:0] $end
$var reg 32 E# src_ip [31:0] $end
$var reg 16 F# src_port [15:0] $end
$var reg 1 2 tuple_valid $end
$var reg 4 G# word_cnt [3:0] $end
$upscope $end
$scope module snn_core $end
$var wire 1 & clk $end
$var wire 8 H# in_spikes [7:0] $end
$var wire 1 ( rst $end
$var wire 1 5 valid_in $end
$var wire 2 I# out_spikes [1:0] $end
$var reg 16 J# current_n0 [15:0] $end
$var reg 16 K# current_n0_reg [15:0] $end
$var reg 16 L# current_n1 [15:0] $end
$var reg 16 M# current_n1_reg [15:0] $end
$var reg 1 7 valid_out $end
$var reg 1 N# valid_reg $end
$var integer 32 O# i [31:0] $end
$scope module neuron_anomaly $end
$var wire 1 & clk $end
$var wire 1 ( rst $end
$var wire 16 P# syn_current [15:0] $end
$var wire 1 N# valid_in $end
$var wire 16 Q# u_temp [15:0] $end
$var wire 16 R# u_decayed [15:0] $end
$var wire 16 S# syn_input [15:0] $end
$var wire 16 T# leak_amount [15:0] $end
$var parameter 32 U# DATA_WIDTH $end
$var parameter 32 V# LEAK_SHIFT $end
$var parameter 16 W# THRESHOLD $end
$var reg 16 X# membrane_u [15:0] $end
$var reg 1 Y# spike_out $end
$upscope $end
$scope module neuron_safe $end
$var wire 1 & clk $end
$var wire 1 ( rst $end
$var wire 16 Z# syn_current [15:0] $end
$var wire 1 N# valid_in $end
$var wire 16 [# u_temp [15:0] $end
$var wire 16 \# u_decayed [15:0] $end
$var wire 16 ]# syn_input [15:0] $end
$var wire 16 ^# leak_amount [15:0] $end
$var parameter 32 _# DATA_WIDTH $end
$var parameter 32 `# LEAK_SHIFT $end
$var parameter 16 a# THRESHOLD $end
$var reg 16 b# membrane_u [15:0] $end
$var reg 1 c# spike_out $end
$upscope $end
$upscope $end
$upscope $end
$scope task inject_packet $end
$var reg 32 d# dip [31:0] $end
$var reg 16 e# dport [15:0] $end
$var reg 8 f# proto [7:0] $end
$var reg 32 g# sip [31:0] $end
$var reg 16 h# sport [15:0] $end
$upscope $end
$upscope $end
$enddefinitions $end
$comment Show the parameter values. $end
$dumpall
b1111101000 a#
b11 `#
b10000 _#
b1111101000 W#
b11 V#
b10000 U#
b1100111 {"
b1100110 z"
b1100101 y"
b1100100 x"
b1100011 w"
b1100010 v"
b1100001 u"
b1100000 t"
b1011111 s"
b1011110 r"
b1011101 q"
b1011100 p"
b1011011 o"
b1011010 n"
b1011001 m"
b1011000 l"
b1010111 k"
b1010110 j"
b1010101 i"
b1010100 h"
b1010011 g"
b1010010 f"
b1010001 e"
b1010000 d"
b1001111 c"
b1001110 b"
b1001101 a"
b1001100 `"
b1001011 _"
b1001010 ^"
b1001001 ]"
b1001000 \"
b1000111 ["
b1000110 Z"
b1000101 Y"
b1000100 X"
b1000011 W"
b1000010 V"
b1000001 U"
b1000000 T"
b111111 S"
b111110 R"
b111101 Q"
b111100 P"
b111011 O"
b111010 N"
b111001 M"
b111000 L"
b110111 K"
b110110 J"
b110101 I"
b110100 H"
b110011 G"
b110010 F"
b110001 E"
b110000 D"
b101111 C"
b101110 B"
b101101 A"
b101100 @"
b101011 ?"
b101010 >"
b101001 ="
b101000 <"
b100111 ;"
b100110 :"
b100101 9"
b100100 8"
b100011 7"
b100010 6"
b100001 5"
b100000 4"
b11111 3"
b11110 2"
b11101 1"
b11100 0"
b11011 /"
b11010 ."
b11001 -"
b11000 ,"
b10111 +"
b10110 *"
b10101 )"
b10100 ("
b10011 '"
b10010 &"
b10001 %"
b10000 $"
b1111 #"
b1110 ""
b1101 !"
b1100 ~
b1011 }
b1010 |
b1001 {
b1000 z
b111 y
b110 x
b101 w
b100 v
b11 u
b10 t
b1 s
b0 r
b101110001011100010111100101110001011100010111100110000001101110101111101010011011010010110110101110101011011000110000101110100011010010110111101101110011100110010111101110011011010010110110100110000001100000011010100101111011000100110000101101110011010110011001100101110011011010110010101101101 e
b101110001011100010111100101110001011100010111100110000001101110101111101010011011010010110110101110101011011000110000101110100011010010110111101101110011100110010111101110011011010010110110100110000001100000011010100101111011000100110000101101110011010110011001000101110011011010110010101101101 a
b101110001011100010111100101110001011100010111100110000001101110101111101010011011010010110110101110101011011000110000101110100011010010110111101101110011100110010111101110011011010010110110100110000001100000011010100101111011000100110000101101110011010110011000100101110011011010110010101101101 ]
b101110001011100010111100101110001011100010111100110000001101110101111101010011011010010110110101110101011011000110000101110100011010010110111101101110011100110010111101110011011010010110110100110000001100000011010100101111011000100110000101101110011010110011000000101110011011010110010101101101 Y
$end
#0
$dumpvars
bx h#
bx g#
bx f#
bx e#
bx d#
xc#
bx b#
bx ^#
bx ]#
bx \#
bx [#
bx Z#
xY#
bx X#
bx T#
bx S#
bx R#
bx Q#
bx P#
b1000 O#
xN#
bx M#
b0 L#
bx K#
b0 J#
bx I#
bx H#
bx G#
bx F#
bx E#
bx D#
xC#
bx B#
bx A#
bx @#
1?#
bx >#
bx =#
bx <#
bx ;#
bx :#
bx 9#
bx 8#
bx 7#
bx 6#
bx 5#
bx 4#
bx 3#
x2#
bx 1#
bx 0#
bx /#
bx .#
bx -#
bx ,#
x+#
x*#
x)#
x(#
x'#
x&#
x%#
x$#
x##
bx "#
bx !#
bx ~"
bx }"
bx |"
bx q
bx p
bx o
bx n
bx m
bx l
bx k
bx j
bx i
bx h
xg
bx f
bx d
xc
bx b
bx `
x_
bx ^
bx \
x[
bx Z
bx X
bx W
xV
bx U
xT
bx S
xR
bx Q
xP
bx O
bx N
bx M
bx L
bx K
bx J
xI
xH
bx G
bx F
bx E
bx D
xC
bx B
bx A
x@
x?
x>
x=
bx <
bx ;
x:
bx 9
bx 8
x7
bx 6
x5
bx 4
bx 3
x2
bx 1
bx 0
bx /
bx .
x-
0,
x+
bx *
bx )
1(
1'
0&
bx %
bx $
x#
0"
1!
$end
#3200
b100001101111 k
b100111110111 j
b10100000000 i
b101000000000 h
0-
b1000 O#
b0 [#
b0 \#
b0 ^#
b0 Q#
b0 R#
b0 T#
b0 S#
b0 ]#
b0 m
b0 B#
b0 9
b0 9#
b0 D#
b0 ;
b0 :#
b0 A#
b0 3
b0 7#
b0 F#
b0 <
b0 ;#
b0 @#
b0 4
b0 8#
b0 E#
0:
02
0C#
b0 G#
05
b0 6
b0 <#
b0 H#
0c#
b0 b#
b0 8
b0 I#
0Y#
b0 X#
07
0N#
b0 M#
b0 P#
b0 K#
b0 Z#
b0 1#
b0 F
b0 3#
b0 N
b0 0#
b0 D
b0 5#
b0 O
b0 /#
b0 G
b0 l
b0 "#
b0 E
b0 4#
0H
0C
02#
b0 6#
0I
b0 J
b0 d
b0 q
b0 K
b0 `
b0 p
b0 L
b0 \
b0 o
b0 M
b0 X
b0 n
0[
0V
b0 W
b0 Z
b0 |"
0_
0T
b0 U
b0 ^
b0 }"
0c
0R
b0 S
b0 b
b0 ~"
0g
0P
b0 Q
b0 f
b0 !#
0=
0?
0>
0+#
0)#
0'#
0%#
0##
0*#
0(#
0&#
0$#
0@
b11 ,#
1&
#6400
0&
#9600
b11 ,#
1&
#12800
0&
#16000
b11 ,#
1&
#19200
0&
#22400
b11 ,#
1&
#25600
0&
#28800
b11 ,#
1&
#32000
0&
#35200
b11 ,#
1&
#38400
0&
#41600
b11 ,#
1&
#44800
0&
#48000
b11 ,#
1&
#51200
0&
#54400
b11 ,#
1&
#57600
0&
#60800
b11 ,#
1&
#64000
0&
#67200
b11 ,#
1&
#70400
0&
#73600
b11 ,#
1&
#76800
0&
#80000
b11 ,#
1&
#83200
0&
#86400
b11 ,#
1&
#89600
0&
#92800
b11 ,#
1&
#96000
0&
#99200
b11 ,#
1&
#100000
0(
#102400
0&
#105600
1&
#108800
0&
#112000
1&
#115200
0&
#118400
1&
#121600
0&
#124800
1&
#128000
0&
#131200
1&
#134400
0&
#137600
1&
#140800
0&
#144000
1&
#147200
0&
#150000
b110 9
b110 9#
b110 D#
b1010000 ;
b1010000 :#
b1010000 A#
b10011100010000 3
b10011100010000 7#
b10011100010000 F#
b1000000010000000100000001000 <
b1000000010000000100000001000 ;#
b1000000010000000100000001000 @#
b1010000000000000000000000001 4
b1010000000000000000000000001 8#
b1010000000000000000000000001 E#
12
#150400
b10100000 L#
b1011010 J#
b1000 O#
b10000101 6
b10000101 <#
b10000101 H#
15
1&
#153600
0&
#156800
b10100000 Q#
b10100000 S#
b1011010 [#
b1011010 ]#
b10100000 M#
b10100000 P#
b1011010 K#
b1011010 Z#
1N#
1&
#160000
0&
#163200
b10100 T#
b1011 ^#
17
b100101100 Q#
b10001100 R#
b10100000 X#
b10101001 [#
b1001111 \#
b1011010 b#
1&
#166400
0&
#169600
b10101 ^#
b100101 T#
b11101110 [#
b10010100 \#
b10101001 b#
b110100111 Q#
b100000111 R#
b100101100 X#
1&
#172800
0&
#176000
b110100 T#
b11101 ^#
b1000010011 Q#
b101110011 R#
b110100111 X#
b100101011 [#
b11010001 \#
b11101110 b#
1&
#179200
0&
#182400
b100101 ^#
b1000010 T#
b101100000 [#
b100000110 \#
b100101011 b#
b1001110001 Q#
b111010001 R#
b1000010011 X#
1&
#185600
0&
#188800
b1001110 T#
b101100 ^#
b1011000011 Q#
b1000100011 R#
b1001110001 X#
b110001110 [#
b100110100 \#
b101100000 b#
1&
#192000
0&
#195200
b110001 ^#
b1011000 T#
b110110111 [#
b101011101 \#
b110001110 b#
b1100001011 Q#
b1001101011 R#
b1011000011 X#
1&
#198400
0&
#201600
b1100001 T#
b110110 ^#
b1101001010 Q#
b1010101010 R#
b1100001011 X#
b111011011 [#
b110000001 \#
b110110111 b#
1&
#204800
0&
#208000
b111011 ^#
b1101001 T#
b111111010 [#
b110100000 \#
b111011011 b#
b1110000001 Q#
b1011100001 R#
b1101001010 X#
1&
#211200
0&
#214400
b1110000 T#
b111111 ^#
b1110110001 Q#
b1100010001 R#
b1110000001 X#
b1000010101 [#
b110111011 \#
b111111010 b#
1&
#217600
0&
#220800
b1000010 ^#
b1110110 T#
b1000101101 [#
b111010011 \#
b1000010101 b#
b1111011011 Q#
b1100111011 R#
b1110110001 X#
1&
#224000
0&
#227200
b1111011 T#
b1000101 ^#
b10000000000 Q#
b1101100000 R#
b1111011011 X#
b1001000010 [#
b111101000 \#
b1000101101 b#
1&
#230400
0&
#233600
b1001000 ^#
b0 T#
b1001010100 [#
b111111010 \#
b1001000010 b#
b10100000 Q#
b0 R#
b0 X#
b10 8
b10 I#
1Y#
1&
#236800
0&
#240000
b10100 T#
b1001010 ^#
1@
b100101100 Q#
b10001100 R#
b10100000 X#
b0 8
b0 I#
0Y#
b1001100100 [#
b1000001010 \#
b1001010100 b#
1&
#243200
0&
#246400
b1001100 ^#
b100101 T#
b1001110010 [#
b1000011000 \#
b1001100100 b#
b110100111 Q#
b100000111 R#
b100101100 X#
1&
#249600
0&
#252800
b110100 T#
b1001110 ^#
b1000010011 Q#
b101110011 R#
b110100111 X#
b1001111110 [#
b1000100100 \#
b1001110010 b#
1&
#256000
0&
#259200
b1001111 ^#
b1000010 T#
b1010001001 [#
b1000101111 \#
b1001111110 b#
b1001110001 Q#
b111010001 R#
b1000010011 X#
1&
#262400
0&
#265600
b1001110 T#
b1010001 ^#
b1011000011 Q#
b1000100011 R#
b1001110001 X#
b1010010010 [#
b1000111000 \#
b1010001001 b#
1&
#268800
0&
#272000
b1010010 ^#
b1011000 T#
b1010011010 [#
b1001000000 \#
b1010010010 b#
b1100001011 Q#
b1001101011 R#
b1011000011 X#
1&
#275200
0&
#278400
b1100001 T#
b1010011 ^#
b1101001010 Q#
b1010101010 R#
b1100001011 X#
b1010100001 [#
b1001000111 \#
b1010011010 b#
1&
#281600
0&
#284800
b1010100 ^#
b1101001 T#
b1010100111 [#
b1001001101 \#
b1010100001 b#
b1110000001 Q#
b1011100001 R#
b1101001010 X#
1&
#288000
0&
#291200
b1110000 T#
b1110110001 Q#
b1100010001 R#
b1110000001 X#
b1010101101 [#
b1001010011 \#
b1010100111 b#
1&
#294400
0&
#297600
b1010101 ^#
b1110110 T#
b1010110010 [#
b1001011000 \#
b1010101101 b#
b1111011011 Q#
b1100111011 R#
b1110110001 X#
1&
#300800
0&
#304000
b1111011 T#
b1010110 ^#
b10000000000 Q#
b1101100000 R#
b1111011011 X#
b1010110110 [#
b1001011100 \#
b1010110010 b#
1&
#307200
0&
#310400
b0 T#
b1010111010 [#
b1001100000 \#
b1010110110 b#
b10100000 Q#
b0 R#
b0 X#
b10 8
b10 I#
1Y#
1&
#313600
0&
#316800
b10100 T#
b1010111 ^#
b100101100 Q#
b10001100 R#
b10100000 X#
b0 8
b0 I#
0Y#
b1010111101 [#
b1001100011 \#
b1010111010 b#
1&
#320000
0&
#323200
b100101 T#
b1011000000 [#
b1001100110 \#
b1010111101 b#
b110100111 Q#
b100000111 R#
b100101100 X#
1&
#326400
0&
#329600
b110100 T#
b1011000 ^#
b1000010011 Q#
b101110011 R#
b110100111 X#
b1011000010 [#
b1001101000 \#
b1011000000 b#
1&
#332800
0&
#336000
b1000010 T#
b1011000100 [#
b1001101010 \#
b1011000010 b#
b1001110001 Q#
b111010001 R#
b1000010011 X#
1&
#339200
0&
#342400
b1001110 T#
b1011000011 Q#
b1000100011 R#
b1001110001 X#
b1011000110 [#
b1001101100 \#
b1011000100 b#
1&
#345600
0&
#348800
b1011000 T#
b1011001000 [#
b1001101110 \#
b1011000110 b#
b1100001011 Q#
b1001101011 R#
b1011000011 X#
1&
#352000
0&
#355200
b1100001 T#
b1011001 ^#
b1101001010 Q#
b1010101010 R#
b1100001011 X#
b1011001001 [#
b1001101111 \#
b1011001000 b#
1&
#358400
0&
#361600
b1101001 T#
b1011001010 [#
b1001110000 \#
b1011001001 b#
b1110000001 Q#
b1011100001 R#
b1101001010 X#
1&
#364800
0&
#368000
b1110000 T#
b1110110001 Q#
b1100010001 R#
b1110000001 X#
b1011001011 [#
b1001110001 \#
b1011001010 b#
1&
#371200
0&
#374400
b1110110 T#
b1011001100 [#
b1001110010 \#
b1011001011 b#
b1111011011 Q#
b1100111011 R#
b1110110001 X#
1&
#377600
0&
#380800
b1111011 T#
b10000000000 Q#
b1101100000 R#
b1111011011 X#
b1011001101 [#
b1001110011 \#
b1011001100 b#
1&
#384000
0&
#387200
b0 T#
b1011001110 [#
b1001110100 \#
b1011001101 b#
b10100000 Q#
b0 R#
b0 X#
b10 8
b10 I#
1Y#
1&
#390400
0&
#393600
b10100 T#
b100101100 Q#
b10001100 R#
b10100000 X#
b0 8
b0 I#
0Y#
b1011001111 [#
b1001110101 \#
b1011001110 b#
1&
#396800
0&
#400000
b1000 O#
b11001000 L#
b0 J#
b100101 T#
b11011010 6
b11011010 <#
b11011010 H#
b1011010000 [#
b1001110110 \#
b1011001111 b#
b110100111 Q#
b100000111 R#
b100101100 X#
1&
b10001 9
b10001 9#
b10001 D#
b110101 ;
b110101 :#
b110101 A#
b1100001101010000 3
b1100001101010000 7#
b1100001101010000 F#
b1000000010000000100011111111 <
b1000000010000000100011111111 ;#
b1000000010000000100011111111 @#
b1010000000000000000000000001 4
b1010000000000000000000000001 8#
b1010000000000000000000000001 E#
#403200
0&
#406400
b11001000 S#
b0 ]#
b110100 T#
b1011010 ^#
b11001000 M#
b11001000 P#
b0 K#
b0 Z#
b1000111011 Q#
b101110011 R#
b110100111 X#
b1001110110 [#
b1001110110 \#
b1011010000 b#
1&
#409600
0&
#412800
b1001110 ^#
b1000111 T#
b1000101000 [#
b1000101000 \#
b1001110110 b#
b1010111100 Q#
b111110100 R#
b1000111011 X#
1&
#416000
0&
