.history_payload/flattened/ev12/sim/tb_ha_tff_datapath_v005.vcd
$date
	Fri Jun 26 17:23:15 2026
$end
$version
	Icarus Verilog
$end
$timescale
	1ps
$end
$scope module tb_ha_tff_datapath_top_v002 $end
$var wire 1 ! s_axis_tready $end
$var wire 1 " parse_error $end
$var wire 1 # match_valid $end
$var wire 1 $ match_found $end
$var wire 1 % action_forward $end
$var reg 1 & clk $end
$var reg 1 ' rst $end
$var reg 64 ( s_axis_tdata [63:0] $end
$var reg 8 ) s_axis_tkeep [7:0] $end
$var reg 1 * s_axis_tlast $end
$var reg 1 + s_axis_tvalid $end
$scope module uut $end
$var wire 1 & clk $end
$var wire 1 ' rst $end
$var wire 64 , s_axis_tdata [63:0] $end
$var wire 8 - s_axis_tkeep [7:0] $end
$var wire 1 * s_axis_tlast $end
$var wire 1 ! s_axis_tready $end
$var wire 1 + s_axis_tvalid $end
$var wire 1 . tuple_valid $end
$var wire 16 / src_port [15:0] $end
$var wire 32 0 src_ip [31:0] $end
$var wire 8 1 protocol [7:0] $end
$var wire 104 2 parsed_tuple [103:0] $end
$var wire 1 " parse_error $end
$var wire 1 # match_valid $end
$var wire 1 $ match_found $end
$var wire 1 3 hash_valid $end
$var wire 12 4 h3 [11:0] $end
$var wire 12 5 h2 [11:0] $end
$var wire 12 6 h1 [11:0] $end
$var wire 12 7 h0 [11:0] $end
$var wire 16 8 dst_port [15:0] $end
$var wire 32 9 dst_ip [31:0] $end
$var wire 1 : b3_v $end
$var wire 128 ; b3_data [127:0] $end
$var wire 1 < b2_v $end
$var wire 128 = b2_data [127:0] $end
$var wire 1 > b1_v $end
$var wire 128 ? b1_data [127:0] $end
$var wire 1 @ b0_v $end
$var wire 128 A b0_data [127:0] $end
$var wire 1 % action_forward $end
$scope module bank0 $end
$var wire 1 & clk $end
$var wire 1 ' rst $end
$var wire 1 3 read_en $end
$var wire 12 B read_addr [11:0] $end
$var parameter 296 C INIT_FILE $end
$var reg 128 D read_data [127:0] $end
$var reg 1 @ read_valid $end
$var reg 1 E valid_d1 $end
$upscope $end
$scope module bank1 $end
$var wire 1 & clk $end
$var wire 1 ' rst $end
$var wire 1 3 read_en $end
$var wire 12 F read_addr [11:0] $end
$var parameter 296 G INIT_FILE $end
$var reg 128 H read_data [127:0] $end
$var reg 1 > read_valid $end
$var reg 1 I valid_d1 $end
$upscope $end
$scope module bank2 $end
$var wire 1 & clk $end
$var wire 1 ' rst $end
$var wire 1 3 read_en $end
$var wire 12 J read_addr [11:0] $end
$var parameter 296 K INIT_FILE $end
$var reg 128 L read_data [127:0] $end
$var reg 1 < read_valid $end
$var reg 1 M valid_d1 $end
$upscope $end
$scope module bank3 $end
$var wire 1 & clk $end
$var wire 1 ' rst $end
$var wire 1 3 read_en $end
$var wire 12 N read_addr [11:0] $end
$var parameter 296 O INIT_FILE $end
$var reg 128 P read_data [127:0] $end
$var reg 1 : read_valid $end
$var reg 1 Q valid_d1 $end
$upscope $end
$scope module hasher $end
$var wire 1 & clk $end
$var wire 12 R h0_comb [11:0] $end
$var wire 12 S h1_comb [11:0] $end
$var wire 12 T h2_comb [11:0] $end
$var wire 12 U h3_comb [11:0] $end
$var wire 1 ' rst $end
$var wire 104 V tuple_in [103:0] $end
$var wire 1 . valid_in $end
$var wire 104 W rev_tuple [103:0] $end
$var reg 12 X hash_0 [11:0] $end
$var reg 12 Y hash_1 [11:0] $end
$var reg 12 Z hash_2 [11:0] $end
$var reg 12 [ hash_3 [11:0] $end
$var reg 1 3 valid_out $end
$scope begin rev[0] $end
$var parameter 2 \ i $end
$upscope $end
$scope begin rev[1] $end
$var parameter 2 ] i $end
$upscope $end
$scope begin rev[2] $end
$var parameter 3 ^ i $end
$upscope $end
$scope begin rev[3] $end
$var parameter 3 _ i $end
$upscope $end
$scope begin rev[4] $end
$var parameter 4 ` i $end
$upscope $end
$scope begin rev[5] $end
$var parameter 4 a i $end
$upscope $end
$scope begin rev[6] $end
$var parameter 4 b i $end
$upscope $end
$scope begin rev[7] $end
$var parameter 4 c i $end
$upscope $end
$scope begin rev[8] $end
$var parameter 5 d i $end
$upscope $end
$scope begin rev[9] $end
$var parameter 5 e i $end
$upscope $end
$scope begin rev[10] $end
$var parameter 5 f i $end
$upscope $end
$scope begin rev[11] $end
$var parameter 5 g i $end
$upscope $end
$scope begin rev[12] $end
$var parameter 5 h i $end
$upscope $end
$scope begin rev[13] $end
$var parameter 5 i i $end
$upscope $end
$scope begin rev[14] $end
$var parameter 5 j i $end
$upscope $end
$scope begin rev[15] $end
$var parameter 5 k i $end
$upscope $end
$scope begin rev[16] $end
$var parameter 6 l i $end
$upscope $end
$scope begin rev[17] $end
$var parameter 6 m i $end
$upscope $end
$scope begin rev[18] $end
$var parameter 6 n i $end
$upscope $end
$scope begin rev[19] $end
$var parameter 6 o i $end
$upscope $end
$scope begin rev[20] $end
$var parameter 6 p i $end
$upscope $end
$scope begin rev[21] $end
$var parameter 6 q i $end
$upscope $end
$scope begin rev[22] $end
$var parameter 6 r i $end
$upscope $end
$scope begin rev[23] $end
$var parameter 6 s i $end
$upscope $end
$scope begin rev[24] $end
$var parameter 6 t i $end
$upscope $end
$scope begin rev[25] $end
$var parameter 6 u i $end
$upscope $end
$scope begin rev[26] $end
$var parameter 6 v i $end
$upscope $end
$scope begin rev[27] $end
$var parameter 6 w i $end
$upscope $end
$scope begin rev[28] $end
$var parameter 6 x i $end
$upscope $end
$scope begin rev[29] $end
$var parameter 6 y i $end
$upscope $end
$scope begin rev[30] $end
$var parameter 6 z i $end
$upscope $end
$scope begin rev[31] $end
$var parameter 6 { i $end
$upscope $end
$scope begin rev[32] $end
$var parameter 7 | i $end
$upscope $end
$scope begin rev[33] $end
$var parameter 7 } i $end
$upscope $end
$scope begin rev[34] $end
$var parameter 7 ~ i $end
$upscope $end
$scope begin rev[35] $end
$var parameter 7 !" i $end
$upscope $end
$scope begin rev[36] $end
$var parameter 7 "" i $end
$upscope $end
$scope begin rev[37] $end
$var parameter 7 #" i $end
$upscope $end
$scope begin rev[38] $end
$var parameter 7 $" i $end
$upscope $end
$scope begin rev[39] $end
$var parameter 7 %" i $end
$upscope $end
$scope begin rev[40] $end
$var parameter 7 &" i $end
$upscope $end
$scope begin rev[41] $end
$var parameter 7 '" i $end
$upscope $end
$scope begin rev[42] $end
$var parameter 7 (" i $end
$upscope $end
$scope begin rev[43] $end
$var parameter 7 )" i $end
$upscope $end
$scope begin rev[44] $end
$var parameter 7 *" i $end
$upscope $end
$scope begin rev[45] $end
$var parameter 7 +" i $end
$upscope $end
$scope begin rev[46] $end
$var parameter 7 ," i $end
$upscope $end
$scope begin rev[47] $end
$var parameter 7 -" i $end
$upscope $end
$scope begin rev[48] $end
$var parameter 7 ." i $end
$upscope $end
$scope begin rev[49] $end
$var parameter 7 /" i $end
$upscope $end
$scope begin rev[50] $end
$var parameter 7 0" i $end
$upscope $end
$scope begin rev[51] $end
$var parameter 7 1" i $end
$upscope $end
$scope begin rev[52] $end
$var parameter 7 2" i $end
$upscope $end
$scope begin rev[53] $end
$var parameter 7 3" i $end
$upscope $end
$scope begin rev[54] $end
$var parameter 7 4" i $end
$upscope $end
$scope begin rev[55] $end
$var parameter 7 5" i $end
$upscope $end
$scope begin rev[56] $end
$var parameter 7 6" i $end
$upscope $end
$scope begin rev[57] $end
$var parameter 7 7" i $end
$upscope $end
$scope begin rev[58] $end
$var parameter 7 8" i $end
$upscope $end
$scope begin rev[59] $end
$var parameter 7 9" i $end
$upscope $end
$scope begin rev[60] $end
$var parameter 7 :" i $end
$upscope $end
$scope begin rev[61] $end
$var parameter 7 ;" i $end
$upscope $end
$scope begin rev[62] $end
$var parameter 7 <" i $end
$upscope $end
$scope begin rev[63] $end
$var parameter 7 =" i $end
$upscope $end
$scope begin rev[64] $end
$var parameter 8 >" i $end
$upscope $end
$scope begin rev[65] $end
$var parameter 8 ?" i $end
$upscope $end
$scope begin rev[66] $end
$var parameter 8 @" i $end
$upscope $end
$scope begin rev[67] $end
$var parameter 8 A" i $end
$upscope $end
$scope begin rev[68] $end
$var parameter 8 B" i $end
$upscope $end
$scope begin rev[69] $end
$var parameter 8 C" i $end
$upscope $end
$scope begin rev[70] $end
$var parameter 8 D" i $end
$upscope $end
$scope begin rev[71] $end
$var parameter 8 E" i $end
$upscope $end
$scope begin rev[72] $end
$var parameter 8 F" i $end
$upscope $end
$scope begin rev[73] $end
$var parameter 8 G" i $end
$upscope $end
$scope begin rev[74] $end
$var parameter 8 H" i $end
$upscope $end
$scope begin rev[75] $end
$var parameter 8 I" i $end
$upscope $end
$scope begin rev[76] $end
$var parameter 8 J" i $end
$upscope $end
$scope begin rev[77] $end
$var parameter 8 K" i $end
$upscope $end
$scope begin rev[78] $end
$var parameter 8 L" i $end
$upscope $end
$scope begin rev[79] $end
$var parameter 8 M" i $end
$upscope $end
$scope begin rev[80] $end
$var parameter 8 N" i $end
$upscope $end
$scope begin rev[81] $end
$var parameter 8 O" i $end
$upscope $end
$scope begin rev[82] $end
$var parameter 8 P" i $end
$upscope $end
$scope begin rev[83] $end
$var parameter 8 Q" i $end
$upscope $end
$scope begin rev[84] $end
$var parameter 8 R" i $end
$upscope $end
$scope begin rev[85] $end
$var parameter 8 S" i $end
$upscope $end
$scope begin rev[86] $end
$var parameter 8 T" i $end
$upscope $end
$scope begin rev[87] $end
$var parameter 8 U" i $end
$upscope $end
$scope begin rev[88] $end
$var parameter 8 V" i $end
$upscope $end
$scope begin rev[89] $end
$var parameter 8 W" i $end
$upscope $end
$scope begin rev[90] $end
$var parameter 8 X" i $end
$upscope $end
$scope begin rev[91] $end
$var parameter 8 Y" i $end
$upscope $end
$scope begin rev[92] $end
$var parameter 8 Z" i $end
$upscope $end
$scope begin rev[93] $end
$var parameter 8 [" i $end
$upscope $end
$scope begin rev[94] $end
$var parameter 8 \" i $end
$upscope $end
$scope begin rev[95] $end
$var parameter 8 ]" i $end
$upscope $end
$scope begin rev[96] $end
$var parameter 8 ^" i $end
$upscope $end
$scope begin rev[97] $end
$var parameter 8 _" i $end
$upscope $end
$scope begin rev[98] $end
$var parameter 8 `" i $end
$upscope $end
$scope begin rev[99] $end
$var parameter 8 a" i $end
$upscope $end
$scope begin rev[100] $end
$var parameter 8 b" i $end
$upscope $end
$scope begin rev[101] $end
$var parameter 8 c" i $end
$upscope $end
$scope begin rev[102] $end
$var parameter 8 d" i $end
$upscope $end
$scope begin rev[103] $end
$var parameter 8 e" i $end
$upscope $end
$upscope $end
$scope module matcher $end
$var wire 128 f" b0_data [127:0] $end
$var wire 128 g" b1_data [127:0] $end
$var wire 128 h" b2_data [127:0] $end
$var wire 128 i" b3_data [127:0] $end
$var wire 1 @ bram_valid $end
$var wire 1 & clk $end
$var wire 1 ' rst $end
$var wire 104 j" tuple_in [103:0] $end
$var wire 1 . valid_in $end
$var reg 1 % action_forward $end
$var reg 1 $ match_found $end
$var reg 1 # match_valid $end
$var reg 1 k" s1_b0_action $end
$var reg 1 l" s1_b0_match $end
$var reg 1 m" s1_b1_action $end
$var reg 1 n" s1_b1_match $end
$var reg 1 o" s1_b2_action $end
$var reg 1 p" s1_b2_match $end
$var reg 1 q" s1_b3_action $end
$var reg 1 r" s1_b3_match $end
$var reg 1 s" s1_valid $end
$var integer 32 t" i [31:0] $end
$upscope $end
$scope module parser $end
$var wire 1 & clk $end
$var wire 1 ' rst $end
$var wire 64 u" s_axis_tdata [63:0] $end
$var wire 8 v" s_axis_tkeep [7:0] $end
$var wire 1 * s_axis_tlast $end
$var wire 1 ! s_axis_tready $end
$var wire 1 + s_axis_tvalid $end
$var reg 32 w" dst_ip [31:0] $end
$var reg 16 x" dst_port [15:0] $end
$var reg 16 y" ethertype [15:0] $end
$var reg 1 " parse_error $end
$var reg 1 z" parsing $end
$var reg 8 {" protocol [7:0] $end
$var reg 32 |" src_ip [31:0] $end
$var reg 16 }" src_port [15:0] $end
$var reg 1 . tuple_valid $end
$var reg 4 ~" word_cnt [3:0] $end
$upscope $end
$upscope $end
$scope task send_word $end
$var reg 64 !# data [63:0] $end
$var reg 1 "# is_last $end
$var reg 8 ## keep [7:0] $end
$upscope $end
$upscope $end
$enddefinitions $end
$comment Show the parameter values. $end
$dumpall
b1100111 e"
b1100110 d"
b1100101 c"
b1100100 b"
b1100011 a"
b1100010 `"
b1100001 _"
b1100000 ^"
b1011111 ]"
b1011110 \"
b1011101 ["
b1011100 Z"
b1011011 Y"
b1011010 X"
b1011001 W"
b1011000 V"
b1010111 U"
b1010110 T"
b1010101 S"
b1010100 R"
b1010011 Q"
b1010010 P"
b1010001 O"
b1010000 N"
b1001111 M"
b1001110 L"
b1001101 K"
b1001100 J"
b1001011 I"
b1001010 H"
b1001001 G"
b1001000 F"
b1000111 E"
b1000110 D"
b1000101 C"
b1000100 B"
b1000011 A"
b1000010 @"
b1000001 ?"
b1000000 >"
b111111 ="
b111110 <"
b111101 ;"
b111100 :"
b111011 9"
b111010 8"
b111001 7"
b111000 6"
b110111 5"
b110110 4"
b110101 3"
b110100 2"
b110011 1"
b110010 0"
b110001 /"
b110000 ."
b101111 -"
b101110 ,"
b101101 +"
b101100 *"
b101011 )"
b101010 ("
b101001 '"
b101000 &"
b100111 %"
b100110 $"
b100101 #"
b100100 ""
b100011 !"
b100010 ~
b100001 }
b100000 |
b11111 {
b11110 z
b11101 y
b11100 x
b11011 w
b11010 v
b11001 u
b11000 t
b10111 s
b10110 r
b10101 q
b10100 p
b10011 o
b10010 n
b10001 m
b10000 l
b1111 k
b1110 j
b1101 i
b1100 h
b1011 g
b1010 f
b1001 e
b1000 d
b111 c
b110 b
b101 a
b100 `
b11 _
b10 ^
b1 ]
b0 \
b101110001011100010111100101110001011100010111100110000001101110101111101010011011010010110110101110101011011000110000101110100011010010110111101101110011100110010111101110011011010010110110100110000001100000011010100101111011000100110000101101110011010110011001100101110011011010110010101101101 O
b101110001011100010111100101110001011100010111100110000001101110101111101010011011010010110110101110101011011000110000101110100011010010110111101101110011100110010111101110011011010010110110100110000001100000011010100101111011000100110000101101110011010110011001000101110011011010110010101101101 K
b101110001011100010111100101110001011100010111100110000001101110101111101010011011010010110110101110101011011000110000101110100011010010110111101101110011100110010111101110011011010010110110100110000001100000011010100101111011000100110000101101110011010110011000100101110011011010110010101101101 G
b101110001011100010111100101110001011100010111100110000001101110101111101010011011010010110110101110101011011000110000101110100011010010110111101101110011100110010111101110011011010010110110100110000001100000011010100101111011000100110000101101110011010110011000000101110011011010110010101101101 C
$end
#0
$dumpvars
bx ##
x"#
bx !#
bx ~"
bx }"
bx |"
bx {"
xz"
bx y"
bx x"
bx w"
b0 v"
b0 u"
bx t"
xs"
xr"
xq"
xp"
xo"
xn"
xm"
xl"
xk"
bx j"
bx i"
bx h"
bx g"
bx f"
bx [
bx Z
bx Y
bx X
bx W
bx V
bx U
bx T
bx S
bx R
xQ
bx P
bx N
xM
bx L
bx J
xI
bx H
bx F
xE
bx D
bx B
bx A
x@
bx ?
x>
bx =
x<
bx ;
x:
bx 9
bx 8
bx 7
bx 6
bx 5
bx 4
x3
bx 2
bx 1
bx 0
bx /
x.
b0 -
b0 ,
0+
0*
b0 )
b0 (
1'
0&
x%
x$
x#
x"
1!
$end
#3200
b100001101111 U
b100111110111 T
b10100000000 S
b101000000000 R
b0 W
b0 y"
b0 1
b0 {"
b0 8
b0 x"
b0 /
b0 }"
b0 9
b0 w"
b0 2
b0 V
b0 j"
b0 0
b0 |"
0"
0.
0z"
b0 ~"
03
b0 4
b0 N
b0 [
b0 5
b0 J
b0 Z
b0 6
b0 F
b0 Y
b0 7
b0 B
b0 X
0E
0@
b0 A
b0 D
b0 f"
0I
0>
b0 ?
b0 H
b0 g"
0M
0<
b0 =
b0 L
b0 h"
0Q
0:
b0 ;
b0 P
b0 i"
0#
0%
0$
0s"
0q"
0o"
0m"
0k"
0r"
0p"
0n"
0l"
b11 t"
1&
#6400
0&
#9600
b11 t"
1&
#12800
0&
#16000
b11 t"
1&
#19200
0&
#22400
b11 t"
1&
#25600
0&
#28800
b11 t"
1&
#32000
0&
#35200
b11 t"
1&
#38400
0&
#41600
b11 t"
1&
#44800
0&
#48000
b11 t"
1&
#51200
0&
#54400
b11 t"
1&
#57600
0&
#60800
b11 t"
1&
#64000
0&
#67200
b11 t"
1&
#70400
0&
#73600
b11 t"
1&
#76800
0&
#80000
b11 t"
1&
#83200
0&
#86400
b11 t"
1&
#89600
0&
#92800
b11 t"
1&
#96000
0&
#99200
b11 t"
1&
#100000
0'
#102400
0&
#105600
1&
#108800
0&
#112000
1&
#115200
0&
#118400
1&
#120000
0"#
b11111111 ##
b1111111111111111111111111111111111111111111111111110111011101110 !#
#121600
0&
#124800
b11111111 )
b11111111 -
b11111111 v"
b1111111111111111111111111111111111111111111111111110111011101110 (
b1111111111111111111111111111111111111111111111111110111011101110 ,
b1111111111111111111111111111111111111111111111111110111011101110 u"
1+
b1110111011101110111011101110111000001000000000000100010100000000 !#
1&
#128000
0&
#131200
b1 ~"
1z"
b1110111011101110111011101110111000001000000000000100010100000000 (
b1110111011101110111011101110111000001000000000000100010100000000 ,
b1110111011101110111011101110111000001000000000000100010100000000 u"
b101000101010111100110101000000000000000100000000010001 !#
1&
#134400
0&
#137600
b100000000000 y"
b10 ~"
b101000101010111100110101000000000000000100000000010001 (
b101000101010111100110101000000000000000100000000010001 ,
b101000101010111100110101000000000000000100000000010001 u"
b110000001010100000000001000000010000101000000000 !#
1&
#140800
0&
#144000
b100101101110 T
b101000010001 R
b1000101 U
b10110001000 S
b10001000000000000000000000000000000000000000000000000000000000000000000000000000000000000000000000000000 W
b10001 2
b10001 V
b10001 j"
b10001 1
b10001 {"
b11 ~"
b110000001010100000000001000000010000101000000000 (
b110000001010100000000001000000010000101000000000 ,
b110000001010100000000001000000010000101000000000 u"
b1000001001101001000000000010100000000000000001000 !#
1&
#147200
0&
#150400
b100000001111 S
b111000100011 U
b110111011000 T
b111110000 R
b10001000000000000000000000000000000000000000000000000000000000000101000010000000100000000001010100000011 W
b1010000000000000000000000000 9
b1010000000000000000000000000 w"
b11000000101010000000000100000001000010100000000000000000000000000000000000000000000000000000000000010001 2
b11000000101010000000000100000001000010100000000000000000000000000000000000000000000000000000000000010001 V
b11000000101010000000000100000001000010100000000000000000000000000000000000000000000000000000000000010001 j"
b11000000101010000000000100000001 0
b11000000101010000000000100000001 |"
b100 ~"
b1000001001101001000000000010100000000000000001000 (
b1000001001101001000000000010100000000000000001000 ,
b1000001001101001000000000010100000000000000001000 u"
1"#
b11110000 ##
b1101111010101101101111101110111100000000000000000000000000000000 !#
1&
#153600
0&
#156800
b111100000001 T
b111111111000 U
b10100110111 R
b101011101100 S
b10001000000010100000000001001011001000001000000000000000000000000101000010000000100000000001010100000011 W
1.
b1010000 8
b1010000 x"
b10011010010 /
b10011010010 }"
b11000000101010000000000100000001000010100000000000000000000000010000010011010010000000000101000000010001 2
b11000000101010000000000100000001000010100000000000000000000000010000010011010010000000000101000000010001 V
b11000000101010000000000100000001000010100000000000000000000000010000010011010010000000000101000000010001 j"
b1010000000000000000000000001 9
b1010000000000000000000000001 w"
b101 ~"
1*
b11110000 )
b11110000 -
b11110000 v"
b1101111010101101101111101110111100000000000000000000000000000000 (
b1101111010101101101111101110111100000000000000000000000000000000 ,
b1101111010101101101111101110111100000000000000000000000000000000 u"
1&
#160000
0&
#163200
b111111111000 4
b111111111000 N
b111111111000 [
b111100000001 5
b111100000001 J
b111100000001 Z
b101011101100 6
b101011101100 F
b101011101100 Y
b10100110111 7
b10100110111 B
b10100110111 X
13
0z"
b0 ~"
0.
0*
0+
1&
#166400
0&
#169600
03
b11000000000000000000000011000000101010000000000100000001000010100000000000000000000000010000010011010010000000000101000000010001 A
b11000000000000000000000011000000101010000000000100000001000010100000000000000000000000010000010011010010000000000101000000010001 D
b11000000000000000000000011000000101010000000000100000001000010100000000000000000000000010000010011010010000000000101000000010001 f"
1E
1I
1M
1Q
1&
#172800
0&
#176000
1:
0Q
1<
0M
1>
0I
1@
0E
1&
#179200
0&
#182400
0@
0>
0<
0:
1k"
1l"
1s"
1&
#185600
0&
#188800
1%
1$
1#
0l"
0s"
1&
#192000
0&
#195200
0%
0$
0#
1&
#198400
0&
#201600
1&
#204800
0&
#208000
1&
#211200
0&
#214400
1&
#217600
0&
#220800
1&
#224000
0&
#227200
1&
#230400
0&
#233600
1&
#236800
0&
#240000
1&
#243200
0&
#246400
1&
#249600
0&
#252800
1&
#256000
0&
#259200
1&
#262400
0&
#263200
0"#
b11111111 ##
b1111111111111111111111111111111111111111111111111110111011101110 !#
#265600
b11111111 )
b11111111 -
b11111111 v"
b1111111111111111111111111111111111111111111111111110111011101110 (
b1111111111111111111111111111111111111111111111111110111011101110 ,
b1111111111111111111111111111111111111111111111111110111011101110 u"
1+
b1110111011101110111011101110111000001000000000000100010100000000 !#
1&
#268800
0&
#272000
b1 ~"
1z"
b1110111011101110111011101110111000001000000000000100010100000000 (
b1110111011101110111011101110111000001000000000000100010100000000 ,
b1110111011101110111011101110111000001000000000000100010100000000 u"
b101000101010111100110101000000000000000100000000010001 !#
1&
#275200
0&
#278400
b10 ~"
b101000101010111100110101000000000000000100000000010001 (
b101000101010111100110101000000000000000100000000010001 ,
b101000101010111100110101000000000000000100000000010001 u"
b110000001010100000000001000000010000101000000000 !#
1&
#281600
0&
#284800
b11 ~"
b110000001010100000000001000000010000101000000000 (
b110000001010100000000001000000010000101000000000 ,
b110000001010100000000001000000010000101000000000 u"
b1000001001101001000000000010100010000000000001000 !#
1&
#288000
0&
#291200
b100 ~"
b1000001001101001000000000010100010000000000001000 (
b1000001001101001000000000010100010000000000001000 ,
b1000001001101001000000000010100010000000000001000 u"
1"#
b11110000 ##
b1101111010101101101111101110111100000000000000000000000000000000 !#
1&
#294400
0&
#297600
b11000001001 T
b10000110111 R
b10111111000 U
b1011101100 S
b10001000100010100000000001001011001000001000000000000000000000000101000010000000100000000001010100000011 W
1.
b11000000101010000000000100000001000010100000000000000000000000010000010011010010000000000101000100010001 2
b11000000101010000000000100000001000010100000000000000000000000010000010011010010000000000101000100010001 V
b11000000101010000000000100000001000010100000000000000000000000010000010011010010000000000101000100010001 j"
b1010001 8
b1010001 x"
b101 ~"
1*
b11110000 )
b11110000 -
b11110000 v"
b1101111010101101101111101110111100000000000000000000000000000000 (
b1101111010101101101111101110111100000000000000000000000000000000 ,
b1101111010101101101111101110111100000000000000000000000000000000 u"
1&
#300800
0&
#304000
b10111111000 4
b10111111000 N
b10111111000 [
b11000001001 5
b11000001001 J
b11000001001 Z
b1011101100 6
b1011101100 F
b1011101100 Y
b10000110111 7
b10000110111 B
b10000110111 X
13
0z"
b0 ~"
0.
0*
0+
1&
#307200
0&
#310400
03
b10000000000000000000000011000000101010000000000100000001000010100000000000000000000000010000010011010010000000000101000100010001 A
b10000000000000000000000011000000101010000000000100000001000010100000000000000000000000010000010011010010000000000101000100010001 D
b10000000000000000000000011000000101010000000000100000001000010100000000000000000000000010000010011010010000000000101000100010001 f"
1E
1I
1M
1Q
1&
#313600
0&
#316800
1:
0Q
1<
0M
1>
0I
1@
0E
1&
#320000
0&
#323200
0@
0>
0<
0:
0k"
1l"
1s"
1&
#326400
0&
#329600
1$
1#
0l"
0s"
1&
#332800
0&
#336000
0$
0#
1&
#339200
0&
#342400
1&
#345600
0&
#348800
1&
#352000
0&
#355200
1&
#358400
0&
#361600
1&
#364800
0&
#368000
1&
#371200
0&
#374400
1&
#377600
0&
#380800
1&
#384000
0&
#387200
1&
#390400
0&
#393600
1&
#396800
0&
#400000
1&
#403200
0&
#404000
0"#
b11111111 ##
b1111111111111111111111111111111111111111111111111110111011101110 !#
#406400
b11111111 )
b11111111 -
b11111111 v"
b1111111111111111111111111111111111111111111111111110111011101110 (
b1111111111111111111111111111111111111111111111111110111011101110 ,
b1111111111111111111111111111111111111111111111111110111011101110 u"
1+
b1110111011101110111011101110111000001000000000000100010100000000 !#
1&
#409600
0&
#412800
b1 ~"
1z"
b1110111011101110111011101110111000001000000000000100010100000000 (
b1110111011101110111011101110111000001000000000000100010100000000 ,
b1110111011101110111011101110111000001000000000000100010100000000 u"
b101000101010111100110101000000000000000100000000010001 !#
1&
#416000
0&
#419200
b10 ~"
b101000101010111100110101000000000000000100000000010001 (
b101000101010111100110101000000000000000100000000010001 ,
b101000101010111100110101000000000000000100000000010001 u"
b100010001000100010001000100010000000101000000000 !#
1&
#422400
0&
#425600
b11 ~"
b100010001000100010001000100010000000101000000000 (
b100010001000100010001000100010000000101000000000 ,
b100010001000100010001000100010000000101000000000 u"
b1000001001101001000000000010100000000000000001000 !#
1&
#428800
0&
#432000
b111101111111 S
b111110001111 U
b1111010110 T
b111111111110 R
b10001000100010100000000001001011001000001000000000000000000000000101000000010001000100010001000100010001 W
b10001000100010001000100010001000000010100000000000000000000000010000010011010010000000000101000100010001 2
b10001000100010001000100010001000000010100000000000000000000000010000010011010010000000000101000100010001 V
b10001000100010001000100010001000000010100000000000000000000000010000010011010010000000000101000100010001 j"
b10001000100010001000100010001000 0
b10001000100010001000100010001000 |"
b100 ~"
b1000001001101001000000000010100000000000000001000 (
b1000001001101001000000000010100000000000000001000 ,
b1000001001101001000000000010100000000000000001000 u"
1"#
b11110000 ##
b1101111010101101101111101110111100000000000000000000000000000000 !#
1&
#435200
0&
#438400
b101011011110 T
b111011111110 R
b10110001111 U
b11101111111 S
b10001000000010100000000001001011001000001000000000000000000000000101000000010001000100010001000100010001 W
1.
b10001000100010001000100010001000000010100000000000000000000000010000010011010010000000000101000000010001 2
b10001000100010001000100010001000000010100000000000000000000000010000010011010010000000000101000000010001 V
b10001000100010001000100010001000000010100000000000000000000000010000010011010010000000000101000000010001 j"
b1010000 8
b1010000 x"
b101 ~"
1*
b11110000 )
b11110000 -
b11110000 v"
b1101111010101101101111101110111100000000000000000000000000000000 (
b1101111010101101101111101110111100000000000000000000000000000000 ,
b1101111010101101101111101110111100000000000000000000000000000000 u"
1&
#441600
0&
#444800
b10110001111 4
b10110001111 N
b10110001111 [
b101011011110 5
b101011011110 J
b101011011110 Z
b11101111111 6
b11101111111 F
b11101111111 Y
b111011111110 7
b111011111110 B
b111011111110 X
13
0z"
b0 ~"
0.
0*
0+
1&
#448000
0&
#451200
03
b0 A
b0 D
b0 f"
1E
1I
1M
1Q
1&
#454400
0&
#457600
1:
0Q
1<
0M
1>
0I
1@
0E
1&
#460800
0&
#464000
0@
0>
0<
0:
1s"
1&
#467200
0&
#470400
1#
0s"
1&
#473600
0&
#476800
0#
1&
