.history_payload/flattened/ev02/sim/tb_ha_tff_parser_v002.vcd
$date
	Fri Jun 26 16:59:22 2026
$end
$version
	Icarus Verilog
$end
$timescale
	1ps
$end
$scope module tb_ha_tff_parser_v002 $end
$var wire 1 ! s_axis_tready $end
$var wire 1 " tuple_valid $end
$var wire 16 # src_port [15:0] $end
$var wire 32 $ src_ip [31:0] $end
$var wire 8 % protocol [7:0] $end
$var wire 1 & parse_error $end
$var wire 16 ' dst_port [15:0] $end
$var wire 32 ( dst_ip [31:0] $end
$var reg 1 ) clk $end
$var reg 1 * rst $end
$var reg 64 + s_axis_tdata [63:0] $end
$var reg 8 , s_axis_tkeep [7:0] $end
$var reg 1 - s_axis_tlast $end
$var reg 1 . s_axis_tvalid $end
$var reg 1 / success_flag $end
$scope module uut $end
$var wire 1 ) clk $end
$var wire 1 * rst $end
$var wire 64 0 s_axis_tdata [63:0] $end
$var wire 8 1 s_axis_tkeep [7:0] $end
$var wire 1 - s_axis_tlast $end
$var wire 1 ! s_axis_tready $end
$var wire 1 . s_axis_tvalid $end
$var reg 32 2 dst_ip [31:0] $end
$var reg 16 3 dst_port [15:0] $end
$var reg 16 4 ethertype [15:0] $end
$var reg 1 & parse_error $end
$var reg 1 5 parsing $end
$var reg 8 6 protocol [7:0] $end
$var reg 32 7 src_ip [31:0] $end
$var reg 16 8 src_port [15:0] $end
$var reg 1 " tuple_valid $end
$var reg 4 9 word_cnt [3:0] $end
$upscope $end
$scope task send_word $end
$var reg 64 : data [63:0] $end
$var reg 1 ; is_last $end
$var reg 8 < keep [7:0] $end
$upscope $end
$upscope $end
$enddefinitions $end
$comment Show the parameter values. $end
$dumpall
$end
#0
$dumpvars
bx <
x;
bx :
bx 9
bx 8
bx 7
bx 6
x5
bx 4
bx 3
bx 2
b0 1
b0 0
0/
0.
0-
b0 ,
b0 +
1*
0)
bx (
bx '
x&
bx %
bx $
bx #
x"
1!
$end
#3200
b0 4
b0 %
b0 6
b0 '
b0 3
b0 #
b0 8
b0 (
b0 2
b0 $
b0 7
0&
0"
05
b0 9
1)
#6400
0)
#9600
1)
#12800
0)
#16000
1)
#19200
0)
#22400
1)
#25600
0)
#28800
1)
#32000
0)
#35200
1)
#38400
0)
#41600
1)
#44800
0)
#48000
1)
#51200
0)
#54400
1)
#57600
0)
#60800
1)
#64000
0)
#67200
1)
#70400
0)
#73600
1)
#76800
0)
#80000
1)
#83200
0)
#86400
1)
#89600
0)
#92800
1)
#96000
0)
#99200
1)
#100000
0*
#102400
0)
#105600
1)
#108800
0)
#112000
1)
#115200
0)
#118400
1)
#120000
0;
b11111111 <
b1111111111111111111111111111111111111111111111111110111011101110 :
#121600
0)
#124800
b11111111 ,
b11111111 1
b1111111111111111111111111111111111111111111111111110111011101110 +
b1111111111111111111111111111111111111111111111111110111011101110 0
1.
b1110111011101110111011101110111000001000000000000100010100000000 :
1)
#128000
0)
#131200
b1 9
15
b1110111011101110111011101110111000001000000000000100010100000000 +
b1110111011101110111011101110111000001000000000000100010100000000 0
b101000101010111100110101000000000000000100000000010001 :
1)
#134400
0)
#137600
b100000000000 4
b10 9
b101000101010111100110101000000000000000100000000010001 +
b101000101010111100110101000000000000000100000000010001 0
b110000001010100000000001011001000000101000000000 :
1)
#140800
0)
#144000
b10001 %
b10001 6
b11 9
b110000001010100000000001011001000000101000000000 +
b110000001010100000000001011001000000101000000000 0
b101000001001101001000000000010100000000000000001000 :
1)
#147200
0)
#150400
b1010000000000000000000000000 (
b1010000000000000000000000000 2
b11000000101010000000000101100100 $
b11000000101010000000000101100100 7
b100 9
b101000001001101001000000000010100000000000000001000 +
b101000001001101001000000000010100000000000000001000 0
1;
b11110000 <
b1101111010101101101111101110111100000000000000000000000000000000 :
1)
#153600
0)
#156800
1"
b1010000 '
b1010000 3
b10011010010 #
b10011010010 8
b1010000000000000000000000101 (
b1010000000000000000000000101 2
b101 9
1-
b11110000 ,
b11110000 1
b1101111010101101101111101110111100000000000000000000000000000000 +
b1101111010101101101111101110111100000000000000000000000000000000 0
1)
#160000
0)
#163200
1/
05
b0 9
0"
0-
0.
1)
